<?xml version="1.0" encoding="UTF-8" standalone="no"?>
<!-- Created with Inkscape (http://www.inkscape.org/) -->

<svg
   xmlns:dc="http://purl.org/dc/elements/1.1/"
   xmlns:cc="http://creativecommons.org/ns#"
   xmlns:rdf="http://www.w3.org/1999/02/22-rdf-syntax-ns#"
   xmlns:svg="http://www.w3.org/2000/svg"
   xmlns="http://www.w3.org/2000/svg"
   xmlns:sodipodi="http://sodipodi.sourceforge.net/DTD/sodipodi-0.dtd"
   xmlns:inkscape="http://www.inkscape.org/namespaces/inkscape"
   width="210mm"
   height="297mm"
   viewBox="0 0 210 297"
   version="1.1"
   id="svg1010"
   inkscape:version="0.92.4 (5da689c313, 2019-01-14)"
   sodipodi:docname="EarTug.svg">
  <defs
     id="defs1004" />
  <sodipodi:namedview
     id="base"
     pagecolor="#ffffff"
     bordercolor="#666666"
     borderopacity="1.0"
     inkscape:pageopacity="0.0"
     inkscape:pageshadow="2"
     inkscape:zoom="1.52"
     inkscape:cx="287.95269"
     inkscape:cy="846.65186"
     inkscape:document-units="mm"
     inkscape:current-layer="layer1"
     showgrid="false"
     inkscape:window-width="1920"
     inkscape:window-height="1017"
     inkscape:window-x="-8"
     inkscape:window-y="-8"
     inkscape:window-maximized="1" />
  <metadata
     id="metadata1007">
    <rdf:RDF>
      <cc:Work
         rdf:about="">
        <dc:format>image/svg+xml</dc:format>
        <dc:type
           rdf:resource="http://purl.org/dc/dcmitype/StillImage" />
        <dc:title />
      </cc:Work>
    </rdf:RDF>
  </metadata>
  <g
     inkscape:label="Camada 1"
     inkscape:groupmode="layer"
     id="layer1">
    <g
       id="g866"
       inkscape:export-xdpi="417"
       inkscape:export-ydpi="417">
      <path
         d="M 152.99731,73.654327 A 50.080761,50.080883 0 0 1 102.95129,123.7352 50.080761,50.080883 0 0 1 52.835837,73.723817 50.080761,50.080883 0 0 1 102.81232,23.573553 a 50.080761,50.080883 0 0 1 50.1848,49.941795"
         sodipodi:open="true"
         sodipodi:end="6.2804102"
         sodipodi:start="0"
         sodipodi:ry="50.080883"
         sodipodi:rx="50.080761"
         sodipodi:cy="73.654327"
         sodipodi:cx="102.91655"
         sodipodi:type="arc"
         id="path844"
         style="fill:#b38ce9;fill-opacity:1;stroke:#a600ff;stroke-width:8;stroke-linecap:round;stroke-linejoin:round;stroke-miterlimit:4;stroke-dasharray:none;stroke-opacity:1" />
      <g
         transform="translate(2.9941844,-3.0347983)"
         id="g854">
        <g
           id="g1697"
           transform="matrix(0.92897296,0,0,1.01237,3.9828822,2.3373538)">
          <g
             transform="matrix(0,1.2741217,-0.99694182,0,206.78244,-46.514806)"
             style="stroke:#505050;stroke-opacity:1"
             id="g1578">
            <path
               style="fill:none;stroke:#505050;stroke-width:5;stroke-linecap:round;stroke-linejoin:miter;stroke-miterlimit:4;stroke-dasharray:none;stroke-opacity:1"
               d="m 77.460251,102.04386 v 17.58086"
               id="path1559"
               inkscape:connector-curvature="0" />
            <path
               style="fill:none;stroke:#505050;stroke-width:5;stroke-linecap:round;stroke-linejoin:miter;stroke-miterlimit:4;stroke-dasharray:none;stroke-opacity:1"
               d="m 87.730263,102.1309 v 17.58086"
               id="path1559-4"
               inkscape:connector-curvature="0" />
          </g>
          <path
             sodipodi:nodetypes="ccc"
             inkscape:connector-curvature="0"
             id="path1557"
             d="m 97.817659,45.28594 0.173527,27.501189 C 71.584845,73.557791 71.382832,45.032061 97.817659,45.28594 Z"
             style="fill:#000000;fill-opacity:1;stroke:#000000;stroke-width:5.6352129;stroke-linecap:round;stroke-linejoin:round;stroke-miterlimit:4;stroke-dasharray:none;stroke-opacity:1" />
          <path
             sodipodi:nodetypes="ccc"
             inkscape:connector-curvature="0"
             id="path1557-2"
             d="m 112.5244,45.314043 -0.17357,27.501193 c 26.40635,0.770663 26.60838,-27.75507 0.17357,-27.501193 z"
             style="fill:#000000;fill-opacity:1;stroke:#000000;stroke-width:5.6352129;stroke-linecap:round;stroke-linejoin:round;stroke-miterlimit:4;stroke-dasharray:none;stroke-opacity:1" />
        </g>
        <path
           style="fill:none;stroke:#000000;stroke-width:5;stroke-linecap:round;stroke-linejoin:round;stroke-miterlimit:4;stroke-dasharray:none;stroke-opacity:1"
           d="m 76.415843,60.956848 c -7.978668,0.553574 -29.851843,9.33173 -13.577301,18.799341 12.450022,7.575736 34.776741,-0.85721 18.79934,25.762061"
           id="path827"
           inkscape:connector-curvature="0"
           sodipodi:nodetypes="ccc" />
        <path
           style="fill:none;stroke:#000000;stroke-width:5;stroke-linecap:round;stroke-linejoin:round;stroke-miterlimit:4;stroke-dasharray:none;stroke-opacity:1"
           d="m 123.42913,60.956849 c 7.97867,0.553574 29.85184,9.33173 13.5773,18.799341 -12.45002,7.575735 -34.77675,-0.85721 -18.79934,25.76206"
           id="path827-0"
           inkscape:connector-curvature="0"
           sodipodi:nodetypes="ccc" />
      </g>
    </g>
  </g>
</svg>
