<?xml version="1.0" encoding="UTF-8" standalone="no"?>

<svg
   xmlns:xlink="http://www.w3.org/1999/xlink"
   xmlns:dc="http://purl.org/dc/elements/1.1/"
   xmlns:cc="http://creativecommons.org/ns#"
   xmlns:rdf="http://www.w3.org/1999/02/22-rdf-syntax-ns#"
   xmlns:svg="http://www.w3.org/2000/svg"
   xmlns="http://www.w3.org/2000/svg"
   xmlns:dermatek="http://www.dermatek.com.br/namespaces/SVG"
   dermatek:zoom="0.2000"
   width="246"
   height="215"
  >
  <g
     transform="translate(-6.2483643,-8.4511619)">
    <g
       id="layer1-7"
       transform="translate(1.8108643,6.5761619)">
      <path
         id="path3031"
         stroke="[CorPMV]"
         fill="[CorPMV]"
         d="M 7.0422535,3.9114784 245.6338,6.1649995 246.19718,157.99599 7.3239437,157.43261 z"
         style="fill-opacity:1;stroke-width:5.454;stroke-opacity:0.52916703" />
      <path
         id="path3033"
         d="M 7.1830985,4.6157023 245.77465,6.8692234 246.33803,158.70021 7.4647885,158.13683 z"
         style="fill:#000000;fill-opacity:0;stroke:#000000;stroke-width:5.454;stroke-opacity:0.575" />
      <path
         id="path3035"
         d="m 76.619718,157.99599 106.197182,0 0,7.32394 -106.197182,0 z"
         style="fill:#000000;fill-opacity:0.4125;stroke:#000000;stroke-width:3.25399995;stroke-opacity:0.64583333" />
      <path
         id="path3037"
         d="m 116.05634,166.44669 -10.14085,41.69014 5.35212,1.97183 10.70422,-44.22535 5.35211,0 0.28169,45.6338 5.9155,0.84507 0.56338,-46.19718 3.38028,0.28169 10.98591,42.8169 7.04226,-0.56338 -10.98592,-43.09859 z"
         style="fill:#000000;fill-opacity:0.4125;stroke:#000000;stroke-width:0.35433072" />
      <path
         id="path3039"
         transform="matrix(1.2684386,0,0,0.94303223,-10.49713,-35.086032)"
         d="m 125.63381,239.54529 a 14.647887,2.6760564 0 1 1 -29.295773,0 14.647887,2.6760564 0 1 1 29.295773,0 z"
         style="fill:#000000;fill-opacity:0.4125;fill-rule:evenodd;stroke:#000000;stroke-width:3.25399995;stroke-opacity:0.64583333" />
      <path
         id="path3041"
         transform="matrix(1.0754154,0,0,0.98704388,-8.0076406,-21.191118)"
         d="m 154.08451,234.19316 a 25.49296,3.8028172 0 1 1 -50.98592,0 25.49296,3.8028172 0 1 1 50.98592,0 z"
         style="fill:#000000;fill-opacity:0.28333333;fill-rule:evenodd;stroke:#000000;stroke-width:3.25399995;stroke-opacity:0.02916667" />
      <path
         id="path3043"
         transform="translate(-12.112676,0.84507042)"
         d="m 245.9155,209.12274 a 107.04225,1.8309865 0 1 1 -214.084506,0 107.04225,1.8309865 0 1 1 214.084506,0 z"
         style="fill:#000000;fill-opacity:0.14583333;fill-rule:evenodd;stroke:#000000;stroke-width:2.75399995;stroke-opacity:0.0375" />
    </g>
  </g>
</svg>
