<?xml version="1.0" encoding="UTF-8" standalone="no"?>

<svg
   xmlns:dc="http://purl.org/dc/elements/1.1/"
   xmlns:cc="http://creativecommons.org/ns#"
   xmlns:rdf="http://www.w3.org/1999/02/22-rdf-syntax-ns#"
   xmlns:svg="http://www.w3.org/2000/svg"
   xmlns="http://www.w3.org/2000/svg"
   xmlns:xlink="http://www.w3.org/1999/xlink"
   xmlns:sodipodi="http://sodipodi.sourceforge.net/DTD/sodipodi-0.dtd"
   xmlns:inkscape="http://www.inkscape.org/namespaces/inkscape"
   xmlns:dermatek="http://www.dermatek.com.br/namespaces/SVG"
   width="170"
   height="200"
   dermatek:zoom="0.2000"
   id="svg2"
   version="1.1"
   inkscape:version="0.48.4 r9939"
   sodipodi:docname="desenho.svg"
  >
  <defs
     id="defs4">
    <linearGradient
       gradientTransform="translate(180.24404,61.157722)"
       gradientUnits="userSpaceOnUse"
       xlink:href="#linearGradient5510"
       id="linearGradient5516"
       y2="32.631008"
       x2="-203.64508"
       y1="32.631008"
       x1="-338.59183" />
    <radialGradient
       gradientTransform="matrix(1,0,0,1.0716419,0,-1.52075)"
       gradientUnits="userSpaceOnUse"
       xlink:href="#linearGradient5352"
       id="radialGradient5358"
       fy="21.227108"
       fx="202.22952"
       r="7.0968795"
       cy="21.227108"
       cx="202.22952" />
    <filter
       id="filter5269"
       color-interpolation-filters="sRGB"
       height="1.5885063"
       width="1.3908756"
       y="-0.29425323"
       x="-0.19543777">
      <feGaussianBlur
         stdDeviation="15.103032"
         id="feGaussianBlur5271" />
    </filter>
    <linearGradient
       spreadMethod="reflect"
       gradientTransform="translate(-83.891571,24.150603)"
       gradientUnits="userSpaceOnUse"
       xlink:href="#linearGradient5259"
       id="linearGradient5251"
       y2="44.106628"
       x2="196.68681"
       y1="44.106628"
       x1="6.6866903" />
    <linearGradient
       id="linearGradient5209">
      <stop
         offset="0"
         style="stop-color:#000000;stop-opacity:1"
         id="stop5211" />
      <stop
         offset="1"
         style="stop-color:#000000;stop-opacity:0"
         id="stop5213" />
    </linearGradient>
    <linearGradient
       id="linearGradient5225">
      <stop
         offset="0"
         style="stop-color:#000000;stop-opacity:1"
         id="stop5227" />
    </linearGradient>
    <linearGradient
       id="linearGradient5259">
      <stop
         offset="0"
         style="stop-color:#ffff00;stop-opacity:1"
         id="stop5261" />
      <stop
         offset="1"
         style="stop-color:#000000;stop-opacity:0"
         id="stop5263" />
    </linearGradient>
    <linearGradient
       id="linearGradient5352">
      <stop
         offset="0"
         style="stop-color:#000000;stop-opacity:0.38541666"
         id="stop5354" />
      <stop
         offset="1"
         style="stop-color:#000000;stop-opacity:0"
         id="stop5356" />
    </linearGradient>
    <linearGradient
       id="linearGradient5510">
      <stop
         offset="0"
         style="stop-color:#080006;stop-opacity:0.16964285"
         id="stop5512" />
      <stop
         offset="1"
         style="stop-color:#ffff00;stop-opacity:0"
         id="stop5514" />
    </linearGradient>
  </defs>
  <sodipodi:namedview
     id="base"
     pagecolor="#ffffff"
     bordercolor="#666666"
     borderopacity="1.0"
     inkscape:pageopacity="0.0"
     inkscape:pageshadow="2"
     inkscape:zoom="0.35"
     inkscape:cx="351.14324"
     inkscape:cy="16.171142"
     inkscape:document-units="px"
     inkscape:current-layer="layer1"
     showgrid="false"
     fit-margin-top="0"
     fit-margin-left="0"
     fit-margin-right="0"
     fit-margin-bottom="0"
     inkscape:window-width="514"
     inkscape:window-height="423"
     inkscape:window-x="441"
     inkscape:window-y="418"
     inkscape:window-maximized="0" />
  <metadata
     id="metadata7">
    <rdf:RDF>
      <cc:Work
         rdf:about="">
        <dc:format>image/svg+xml</dc:format>
        <dc:type
           rdf:resource="http://purl.org/dc/dcmitype/StillImage" />
        <dc:title></dc:title>
      </cc:Work>
    </rdf:RDF>
  </metadata>
  <g
     inkscape:label="Camada 1"
     inkscape:groupmode="layer"
     id="layer1"
     transform="translate(1.1432425,-7.6362126)">
    <g
       id="g3007"
       transform="translate(-1.5740526,7.4089671)">
      <!--[PosicaoPMVIni]<g transform="translate(390.909149169922,412.727325439453)">-->
      <!--[ZoomPMV]<g transform="scale(2)">-->
      <path
         id="path3009"
         style="color:#000000;fill:url(#linearGradient5251);fill-opacity:1;fill-rule:nonzero;stroke:#000000;stroke-width:4.53302431;stroke-linecap:butt;stroke-linejoin:miter;stroke-miterlimit:4;stroke-opacity:1;stroke-dasharray:none;stroke-dashoffset:0;marker:none;visibility:visible;display:inline;overflow:visible;filter:url(#filter5269)"
         transform="matrix(0.63994828,0,0,0.9891449,73.043199,31.722635)"
         d="m -74.938364,6.6652506 185.467094,0 0,123.1839594 -185.467094,0 z"
         inkscape:connector-curvature="0" />
      <rect
         id="rect5275"
         transform="matrix(0.99858552,-0.05316918,0.05316918,0.99858552,0,0)"
         y="27.518238"
         x="24.075487"
         height="130.66747"
         width="132.19276"
         style="fill:#fff58c;fill-opacity:1;fill-rule:nonzero;stroke:#000000;stroke-width:2.75399995;stroke-opacity:0.0375" />
      <path
         style="fill:url(#radialGradient5358);fill-opacity:1;fill-rule:nonzero;stroke:#000000;stroke-width:2.75399995;stroke-miterlimit:4;stroke-opacity:0.0375;stroke-dasharray:none;stroke-dashoffset:0"
         id="path5350"
         transform="translate(-111.69712,9.8816939)"
         d="m 207.9494,21.227108 a 5.7198796,6.2283134 0 1 1 -0.99302,-3.507139"
         inkscape:connector-curvature="0" />
      <path
         style="color:#000000;fill:#000000;fill-opacity:0.18431373;stroke:#000000;stroke-width:0.35433072;stroke-linecap:butt;stroke-linejoin:miter;stroke-miterlimit:4;stroke-opacity:0.09375;stroke-dasharray:none;stroke-dashoffset:0;marker:none;visibility:visible;display:inline;overflow:visible;enable-background:accumulate"
         id="path5362"
         d="m 90.640166,30.328953 0,-3.863491 3.573729,3.573729 z"
         inkscape:connector-curvature="0" />
      <path
         style="fill:#ff0000;fill-opacity:1;fill-rule:nonzero;stroke:#cd0000;stroke-width:0.24265096;stroke-miterlimit:4;stroke-opacity:1;stroke-dasharray:none;stroke-dashoffset:0"
         id="path5364"
         transform="matrix(0.84095329,0,0,0.80783766,112.18871,-19.026056)"
         d="m -11.204122,53.562756 a 6.9542835,6.7611087 0 1 1 -13.908567,0 6.9542835,6.7611087 0 1 1 13.908567,0 z"
         inkscape:connector-curvature="0" />
      <path
         style="fill:#000000;fill-opacity:0.18333333;fill-rule:nonzero;stroke:#000000;stroke-width:0;stroke-miterlimit:4;stroke-opacity:0.22916667;stroke-dasharray:none;stroke-dashoffset:0"
         id="path5366"
         transform="matrix(1.7037037,0,0,1.8636363,135.78577,-129.46445)"
         d="m -21.056023,81.959412 a 2.6078565,2.1249201 0 1 1 -5.215713,0 2.6078565,2.1249201 0 1 1 5.215713,0 z"
         inkscape:connector-curvature="0" />
      <path
         style="fill:#000000;fill-opacity:0.26666667;fill-rule:nonzero;stroke:#000000;stroke-width:0;stroke-miterlimit:4;stroke-opacity:0.22916667;stroke-dasharray:none;stroke-dashoffset:0"
         id="path5366-4"
         transform="matrix(1.7037037,0,0,1.8636363,137.52434,-130.52691)"
         d="m -21.056023,81.959412 a 2.6078565,2.1249201 0 1 1 -5.215713,0 2.6078565,2.1249201 0 1 1 5.215713,0 z"
         inkscape:connector-curvature="0" />
      <path
         style="fill:#ff0000;fill-opacity:0.4625;fill-rule:nonzero;stroke:#ff0000;stroke-width:0;stroke-miterlimit:4;stroke-opacity:1;stroke-dasharray:none;stroke-dashoffset:0"
         id="path5390"
         transform="matrix(0.57237417,-0.41332635,0.1492504,0.35435634,111.45161,-15.865092)"
         d="m -24.726341,61.19315 a 9.3689651,6.6645212 0 1 1 -2.703355,-4.683361"
         inkscape:connector-curvature="0" />
      <path
         style="fill:#ff0000;fill-opacity:1;fill-rule:nonzero;stroke:#ff0000;stroke-width:0;stroke-miterlimit:4;stroke-opacity:1;stroke-dasharray:none;stroke-dashoffset:0"
         id="path5392"
         transform="matrix(1.1176471,0,0,1,121.7299,-51.630459)"
         d="m -11.397297,69.692833 a 4.9259505,5.6986489 0 1 1 -9.851901,0 4.9259505,5.6986489 0 1 1 9.851901,0 z"
         inkscape:connector-curvature="0" />
      <path
         style="fill:#ffffff;fill-opacity:0.70416667;fill-rule:nonzero;stroke:#ff0000;stroke-width:0;stroke-miterlimit:4;stroke-opacity:1;stroke-dasharray:none;stroke-dashoffset:0"
         id="path5394"
         transform="matrix(0.84444444,0,0,0.84444444,107.01707,-38.795361)"
         d="m 0.96587276,66.988388 a 4.346427,4.346427 0 1 1 -8.69285396,0 4.346427,4.346427 0 1 1 8.69285396,0 z"
         inkscape:connector-curvature="0" />
      <path
         style="fill:#ff0000;fill-opacity:0.40416667;fill-rule:nonzero;stroke:#ff0000;stroke-width:0;stroke-miterlimit:4;stroke-opacity:1;stroke-dasharray:none;stroke-dashoffset:0"
         id="path5394-5"
         transform="matrix(0.62222221,0,0,0.68888888,107.42489,-28.471534)"
         d="m 0.96587276,66.988388 a 4.346427,4.346427 0 1 1 -8.69285396,0 4.346427,4.346427 0 1 1 8.69285396,0 z"
         inkscape:connector-curvature="0" />
      <text
         style="font-size:14px;font-style:normal;font-weight:normal;line-height:125%;letter-spacing:0px;word-spacing:0px;fill:#000000;fill-opacity:0.35;stroke:none;font-family:Sans"
         xml:space="preserve"
         id="text5416"
         transform="matrix(0.9968359,-0.07948709,0.07948709,0.9968359,0,0)"
         y="58.408558"
         x="29.890654"
         sodipodi:linespacing="125%"><tspan
           id="tspan5418"
           y="58.408558"
           x="29.890654">Controle de Visitas</tspan></text>
      <text
         style="font-size:12px;font-style:normal;font-weight:normal;line-height:125%;letter-spacing:0px;word-spacing:0px;fill:#000000;fill-opacity:0.18333333;stroke:none;font-family:Sans"
         xml:space="preserve"
         id="text5420"
         transform="matrix(0.99536823,-0.09613576,0.09613576,0.99536823,0,0)"
         y="81.36821"
         x="29.396767"
         sodipodi:linespacing="125%"><tspan
           id="tspan5422"
           y="81.36821"
           x="29.396767">01/01 OK</tspan></text>
      <text
         style="font-size:12px;font-style:normal;font-weight:normal;line-height:125%;letter-spacing:0px;word-spacing:0px;fill:#000000;fill-opacity:0.18333333;stroke:none;font-family:Sans"
         xml:space="preserve"
         id="text5420-8"
         transform="matrix(0.99536823,-0.09613576,0.09613576,0.99536823,0,0)"
         y="99.058731"
         x="27.985512"
         sodipodi:linespacing="125%"><tspan
           id="tspan5422-8"
           y="99.058731"
           x="27.985512">01/02 OK</tspan></text>
      <text
         style="font-size:12px;font-style:normal;font-weight:normal;line-height:125%;letter-spacing:0px;word-spacing:0px;fill:#000000;fill-opacity:0.18333333;stroke:none;font-family:Sans"
         xml:space="preserve"
         id="text5420-1"
         transform="matrix(0.99536823,-0.09613576,0.09613576,0.99536823,0,0)"
         y="116.12791"
         x="27.889511"
         sodipodi:linespacing="125%"><tspan
           id="tspan5422-2"
           y="116.12791"
           x="27.889511">01/13 _ _ _ _</tspan></text>
      <rect
         style="fill:url(#linearGradient5516);fill-opacity:1;fill-rule:nonzero;stroke:#000000;stroke-width:2.75399995;stroke-miterlimit:4;stroke-opacity:0.0375;stroke-dasharray:none;stroke-dashoffset:0"
         id="rect5275-1"
         transform="matrix(-0.99832442,0.05786498,0.05786498,0.99832442,0,0)"
         y="28.454996"
         x="-156.97081"
         height="130.66747"
         width="132.19276" />
      <!--[_]</g>-->
      <!--[_]</g>-->
    </g>
  </g>
</svg>
