﻿ToolRent:


            DELPHI COMPILER



Conditional defines:
DEBUG;DEFINE_VARLCT;EUREKALOG;EUREKALOG_VER6;MYSQL51;SemFinanceiro1;SemPediVda;semNFe_v0110;SemPediPrzCab2;semEntradaNFe;UsaWSuport;DELPHI16_UP;NAO_GPED;DELPHI12_UP;SNoti;sPQ;sWEB;FmImprime
VER310_UP, _VER7;_VER7;VER310_UP;

-----------------------------

Output Directory:
C:\Executaveis\19.0\ToolRent

-----------------------------

Unit Output Directory:
C:\Projetos_DCU\19.0\ToolRent

-----------------------------


              APLICATION

Icon
C:\_Compilers\projetosdelphi10_2_2_tokyo_2020_06\VCL\APP\CLI\TREN\v01_01\Projeto\ToolRent_Icon.ico

Minifest File:
Custom

Custom manifest:
C:\_Compilers\projetosdelphi10_2_2_tokyo_2020_06\VCL\UTL\Microsoft\default_app.manifest


Apearance:
Luna

Version Info:

Include version....
xxxxxxx (1905011905)



Toolrent.dpr:
----------------------------------------------------------------------------------------------------------
program ToolRent;

//{$R *.dres}

uses
  UnGrl_Vars in '..\..\..\..\..\..\MultiOS\UTL\_UNT\v01_01\UnGrl_Vars.pas' ,
  GdiPlus in '..\..\..\..\..\UTL\Imagem\v01_01\Camera\Common\GdiPlus\Lib\GdiPlus.pas' ,
  UnTX_Tabs in '..\..\..\..\..\MDL\TX\v01_01\Units\UnTX_Tabs.pas',
  UnAppPF in '..\Units\UnAppPF.pas',
  MyListas in '..\Units\MyListas.pas',
  DB_Converte_Tisolin in '..\Units\DB_Converte_Tisolin.pas' {FmDB_Converte_Tisolin},
  GraGruEPat in '..\..\..\..\..\MDL\GRAD\v01_01\GraGruEPat.pas' {FmGraGruEPat},
  Principal in '..\Units\Principal.pas' {FmPrincipal},
  Module in '..\Units\Module.pas' {Dmod: TDataModule},
  Toolrent_Dmk in '..\Units\Toolrent_Dmk.pas' {FmToolrent_Dmk},
  OpcoesTRen in '..\Units\OpcoesTRen.pas' {FmOpcoesTRen},
  ContratApp in '..\Units\ContratApp.pas' {FmContratApp},
  LocCCon in '..\..\..\..\..\MDL\GRAL\LocCCon.pas' {FmLocCCon},
  LocCPatPri in '..\..\..\..\..\MDL\GRAL\LocCPatPri.pas' {FmLocCPatPri},
  GraGXOutr in '..\..\..\..\..\MDL\GRAL\GraGXOutr.pas' {FmGraGXOutr},
  GraGXPatr in '..\..\..\..\..\MDL\GRAL\GraGXPatr.pas' {FmGraGXPatr},
  GraGXPIts in '..\..\..\..\..\MDL\GRAL\GraGXPIts.pas' {FmGraGXPIts},
  LocCPatCns in '..\..\..\..\..\MDL\GRAL\LocCPatCns.pas' {FmLocCPatCns},
  GraGLSitu in '..\..\..\..\..\MDL\GRAL\GraGLSitu.pas' {FmGraGLSitu},
  ImpGXPatr in '..\..\..\..\..\MDL\GRAL\ImpGXPatr.pas' {FmImpGXPatr},
  LocFCab in '..\..\..\..\..\MDL\GRAL\LocFCab.pas' {FmLocFCab},
  FixGXPatr in '..\..\..\..\..\MDL\GRAL\FixGXPatr.pas' {FmFixGXPatr},
  LocCMateri in '..\..\..\..\..\MDL\GRAL\LocCMateri.pas' {FmLocCMateri},
  FixServCad in '..\..\..\..\..\MDL\GRAL\FixServCad.pas' {FmFixServCad},
  FixPecaCad in '..\..\..\..\..\MDL\GRAL\FixPecaCad.pas' {FmFixPecaCad},
  FixGereCab in '..\..\..\..\..\MDL\GRAL\FixGereCab.pas' {FmFixGereCab},
  FixGereEqu in '..\..\..\..\..\MDL\GRAL\FixGereEqu.pas' {FmFixGereEqu},
  FixGerePca in '..\..\..\..\..\MDL\GRAL\FixGerePca.pas' {FmFixGerePca},
  FixGereSrv in '..\..\..\..\..\MDL\GRAL\FixGereSrv.pas' {FmFixGereSrv},
  FixGerePsq in '..\..\..\..\..\MDL\GRAL\FixGerePsq.pas' {FmFixGerePsq},
  UnGraL_Tabs in '..\..\..\..\..\MDL\GRAL\UnGraL_Tabs.pas',
  ModAppGraG1 in '..\..\..\..\..\MDL\GRAL\ModAppGraG1.pas' {DfModAppGraG1},
  Windows,
  Messages,
  Dialogs,
  Forms,
  ZCF2 in '..\..\..\..\..\UTL\_UNT\v01_01\ZCF2.pas',
  MyVCLSkin in '..\..\..\..\..\UTL\_UNT\v01_01\MyVCLSkin.pas',
  ResIntStrings in '..\..\..\..\..\UTL\_UNT\v01_01\ResIntStrings.pas',
  UnInternalConsts2 in '..\..\..\..\..\UTL\_UNT\v01_01\UnInternalConsts2.pas',
  UnInternalConsts3 in '..\..\..\..\..\UTL\_UNT\v01_01\UnInternalConsts3.pas',
  UnInternalConsts in '..\..\..\..\..\UTL\_UNT\v01_01\UnInternalConsts.pas',
  UnMLAGeral in '..\..\..\..\..\UTL\_UNT\v01_01\UnMLAGeral.pas',
  UnMsgInt in '..\..\..\..\..\UTL\_UNT\v01_01\UnMsgInt.pas',
  UnMyVCLref in '..\..\..\..\..\UTL\_UNT\v01_01\UnMyVCLref.pas',
  VerifiDB in '..\..\..\..\..\UTL\MySQL\v01_01\VerifiDB.pas' {FmVerifiDB},
  GModule in '..\..\..\..\..\UTL\MySQL\v01_01\GModule.pas' {GMod: TDataModule},
  InstallMySQL41 in '..\..\..\..\..\UTL\MySQL\v01_01\InstallMySQL41.pas' {FmInstallMySQL41},
  ModuleGeral in '..\..\..\..\..\UTL\MySQL\v01_01\ModuleGeral.pas' {DModG: TDataModule},
  MyInis in '..\..\..\..\..\UTL\MySQL\v01_01\MyInis.pas' {FmMyInis},
  ServerConnect in '..\..\..\..\..\UTL\MySQL\v01_01\ServerConnect.pas' {FmServerConnect},
  ServiceManager in '..\..\..\..\..\UTL\MySQL\v01_01\ServiceManager.pas',
  ServicoManager in '..\..\..\..\..\UTL\MySQL\v01_01\ServicoManager.pas' {FmServicoManager},
  Servidor in '..\..\..\..\..\UTL\MySQL\v01_01\Servidor.pas' {FmServidor},
  UCreate in '..\..\..\..\..\UTL\MySQL\v01_01\UCreate.pas',
  UMySQLModule in '..\..\..\..\..\UTL\MySQL\v01_01\UMySQLModule.pas',
  UnGOTOy in '..\..\..\..\..\UTL\MySQL\v01_01\UnGOTOy.pas',
  UnMySQLCuringa in '..\..\..\..\..\UTL\MySQL\v01_01\UnMySQLCuringa.pas',
  PertoChek in '..\..\..\..\..\MDL\PRIN\v01_01\PertoChek.pas',
  reinit in '..\..\..\..\..\UTL\Textos\v01_01\reinit.pas',
  CalcPercent in '..\..\..\..\..\UTL\_FRM\v01_01\CalcPercent.pas' {FmCalcPercent},
  ConfJanela in '..\..\..\..\..\UTL\_FRM\v01_01\ConfJanela.pas' {FmConfJanela},
  Curinga in '..\..\..\..\..\UTL\_FRM\v01_01\Curinga.pas' {FmCuringa},
  Feriados in '..\..\..\..\..\UTL\_FRM\v01_01\Feriados.pas' {FmFeriados},
  GetPeriodo in '..\..\..\..\..\UTL\_FRM\v01_01\GetPeriodo.pas' {FmGetPeriodo},
  GetValor in '..\..\..\..\..\UTL\_FRM\v01_01\GetValor.pas' {FmGetValor},
  InfoSeq in '..\..\..\..\..\UTL\_FRM\v01_01\InfoSeq.pas' {FmInfoSeq},
  MyGlyfs in '..\..\..\..\..\UTL\_FRM\v01_01\MyGlyfs.pas' {FmMyGlyfs},
  NomeX in '..\..\..\..\..\UTL\_FRM\v01_01\NomeX.pas' {FmNomeX},
  NovaVersao in '..\..\..\..\..\UTL\_FRM\v01_01\NovaVersao.pas' {FmNovaVersao},
  Opcoes in '..\..\..\..\..\UTL\_FRM\v01_01\Opcoes.pas' {FmOpcoes},
  Periodo in '..\..\..\..\..\UTL\_FRM\v01_01\Periodo.pas' {FmPeriodo},
  PesqDescri in '..\..\..\..\..\UTL\_FRM\v01_01\PesqDescri.pas' {FmPesqDescri},
  Ponto in '..\..\..\..\..\UTL\_FRM\v01_01\Ponto.pas' {FmPonto},
  PontoFunci in '..\..\..\..\..\UTL\_FRM\v01_01\PontoFunci.pas' {FmPontoFunci},
  QuaisItens in '..\..\..\..\..\UTL\_FRM\v01_01\QuaisItens.pas' {FmQuaisItens},
  Recibo in '..\..\..\..\..\UTL\_FRM\v01_01\Recibo.pas' {FmRecibo},
  ReciboMany in '..\..\..\..\..\UTL\_FRM\v01_01\ReciboMany.pas' {FmReciboMany},
  Recibos in '..\..\..\..\..\UTL\_FRM\v01_01\Recibos.pas' {FmRecibos},
  SelCod in '..\..\..\..\..\UTL\_FRM\v01_01\SelCod.pas' {FmSelCod},
  SelOnStringGrid in '..\..\..\..\..\UTL\_FRM\v01_01\SelOnStringGrid.pas' {FmSelOnStringGrid},
  Senha in '..\..\..\..\..\UTL\_FRM\v01_01\Senha.pas' {FmSenha},
  SenhaBoss in '..\..\..\..\..\UTL\_FRM\v01_01\SenhaBoss.pas' {FmSenhaBoss},
  SenhaEspecial in '..\..\..\..\..\UTL\_FRM\v01_01\SenhaEspecial.pas' {FmSenhaEspecial},
  Terminais in '..\..\..\..\..\UTL\_FRM\v01_01\Terminais.pas' {FmTerminais},
  EntiCargos in '..\..\..\..\..\MDL\ENT\v02_01\EntiCargos.pas' {FmEntiCargos},
  EntiCtas in '..\..\..\..\..\MDL\ENT\v02_01\EntiCtas.pas' {FmEntiCtas},
  Entidades in '..\..\..\..\..\MDL\ENT\v01_01\Entidades.pas' {FmEntidades},
  EntidadesImp in '..\..\..\..\..\MDL\ENT\v02_01\EntidadesImp.pas' {FmEntidadesImp},
  EntidadesLoc in '..\..\..\..\..\MDL\ENT\v01_01\EntidadesLoc.pas' {FmEntidadesLoc},
  EntidadesNew in '..\..\..\..\..\MDL\ENT\v01_01\EntidadesNew.pas' {FmEntidadesNew},
  EntiMail in '..\..\..\..\..\MDL\ENT\v02_01\EntiMail.pas' {FmEntiMail},
  EntiProd in '..\..\..\..\..\MDL\ENT\v01_01\EntiProd.pas' {FmEntiProd},
  EntiSel in '..\..\..\..\..\MDL\ENT\v02_01\EntiSel.pas' {FmEntiSel},
  EntiTel in '..\..\..\..\..\MDL\ENT\v02_01\EntiTel.pas' {FmEntiTel},
  EntiTipCto in '..\..\..\..\..\MDL\ENT\v02_01\EntiTipCto.pas' {FmEntiTipCto},
  EntiTransfere in '..\..\..\..\..\MDL\ENT\v01_01\EntiTransfere.pas' {FmEntiTransfere},
  EntiTransp in '..\..\..\..\..\MDL\ENT\v02_01\EntiTransp.pas' {FmEntiTransp},
  CEP_Result in '..\..\..\..\..\MDL\ENT\v02_01\CEP\CEP_Result.pas' {FmCEP_Result},
  UnCEP in '..\..\..\..\..\MDL\ENT\v02_01\CEP\UnCEP.pas',
  DockForm in '..\..\..\..\..\UTL\_FRM\v01_01\DockForm.pas' {FmDockForm},
  FormulariosEntidades in '..\..\..\..\..\UTL\Etiquetas\v01_01\FormulariosEntidades.pas' {FmFormulariosEntidades},
  FormulariosCidades in '..\..\..\..\..\UTL\Etiquetas\v01_01\FormulariosCidades.pas' {FmFormulariosCidades},
  FormulariosResult in '..\..\..\..\..\UTL\Etiquetas\v01_01\FormulariosResult.pas' {FmFormulariosResult},
  Maladireta in '..\..\..\..\..\UTL\Etiquetas\v01_01\Maladireta.pas' {FmMaladireta},
  DotPrint in '..\..\..\..\..\MDL\PRIN\v01_01\DotPrint.pas' {FmDotPrint},
  ImpDOS in '..\..\..\..\..\MDL\PRIN\v01_01\ImpDOS.pas' {FmImpDOS},
  Imprime in '..\..\..\..\..\MDL\PRIN\v01_01\Imprime.pas' {FmImprime},
  ImprimeBand in '..\..\..\..\..\MDL\PRIN\v01_01\ImprimeBand.pas' {FmImprimeBand},
  ImprimeView in '..\..\..\..\..\MDL\PRIN\v01_01\ImprimeView.pas' {FmImprimeView},
  MeuFrx in '..\..\..\..\..\UTL\Print\v01_01\MeuFrx.pas' {FmMeuFrx},
  MalaDiretaProfiss in '..\..\..\..\..\UTL\Etiquetas\v01_01\MalaDiretaProfiss.pas' {FmMalaDiretaProfiss},
  MultiEtiq in '..\..\..\..\..\UTL\Etiquetas\v01_01\MultiEtiq.pas' {FmMultiEtiq},
  MultiEtiqNew in '..\..\..\..\..\UTL\Etiquetas\v01_01\MultiEtiqNew.pas' {FmMultiEtiqNew},
  Pages in '..\..\..\..\..\UTL\Etiquetas\v01_01\Pages.pas' {FmPages},
  PagesNew in '..\..\..\..\..\UTL\Etiquetas\v01_01\PagesNew.pas' {FmPagesNew},
  MyDBCheck in '..\..\..\..\..\UTL\MySQL\v01_01\MyDBCheck.pas',
  ZStepCodUni in '..\..\..\..\..\UTL\_FRM\v01_01\ZStepCodUni.pas' {FmZStepCodUni},
  UnMyObjects in '..\..\..\..\..\UTL\_UNT\v01_01\UnMyObjects.pas',
  EntiRespon in '..\..\..\..\..\MDL\ENT\v02_01\EntiRespon.pas' {FmEntiRespon},
  EntiCfgRel_01 in '..\..\..\..\..\MDL\ENT\v02_01\EntiCfgRel_01.pas' {FmEntiCfgRel_01},
  VerifiDBLocal in '..\..\..\..\..\UTL\MySQL\v01_01\VerifiDBLocal.pas' {FmVerifiDBLocal},
  IGPM in '..\..\..\..\..\UTL\Tabelas\v01_01\IGPM.pas' {FmIGPM},
  Matriz in '..\..\..\..\..\MDL\EMP\v01_01\Matriz.pas' {FmMatriz},
  Bancos in '..\..\..\..\..\MDL\BCO\v01_01\Geral\Bancos.pas' {FmBancos},
  PesqNome in '..\..\..\..\..\UTL\_FRM\v01_01\PesqNome.pas' {FmPesqNome},
  UnitMyXML in '..\..\..\..\..\UTL\XML\v01_01\UnitMyXML.pas',
  ModuleBco in '..\..\..\..\..\MDL\BCO\v01_01\Geral\ModuleBco.pas' {DmBco: TDataModule},
  UnBematech_DP_20 in '..\..\..\..\..\MDL\PRIN\v01_01\UnBematech_DP_20.pas',
  EmiteCheque_1 in '..\..\..\..\..\MDL\PRIN\v01_01\EmiteCheque_1.pas' {FmEmiteCheque_1},
  EmiteCheque_3 in '..\..\..\..\..\MDL\PRIN\v01_01\EmiteCheque_3.pas' {FmEmiteCheque_3},
  UnIBGE_DTB_Tabs in '..\..\..\..\..\MDL\ENT\v02_01\IBGE\UnIBGE_DTB_Tabs.pas',
  EmiteCheque_0 in '..\..\..\..\..\MDL\PRIN\v01_01\EmiteCheque_0.pas' {FmEmiteCheque_0},
  ImprimeEmpr in '..\..\..\..\..\MDL\PRIN\v01_01\ImprimeEmpr.pas' {FmImprimeEmpr},
  Backup3 in '..\..\..\..\..\UTL\MySQL\v01_01\Backup3.pas' {FmBackup3},
  ChConfigIts in '..\..\..\..\..\MDL\CHEQ\v01_01\ChConfigIts.pas' {FmChConfigIts},
  EmiteCheque_4 in '..\..\..\..\..\MDL\PRIN\v01_01\EmiteCheque_4.pas' {FmEmiteCheque_4},
  ChConfigCab in '..\..\..\..\..\MDL\CHEQ\v01_01\ChConfigCab.pas' {FmChConfigCab},
  GetBiosInformation in '..\..\..\..\..\UTL\_UNT\v01_01\GetBiosInformation.pas',
  UnitMD5 in '..\..\..\..\..\UTL\Encrypt\v01_01\UnitMD5.pas',
  UnLic_Dmk in '..\..\..\..\..\UTL\_UNT\v01_01\UnLic_Dmk.pas',
  ModuleFin in '..\..\..\..\..\MDL\FIN\v01_01\DataModules\ModuleFin.pas' {DModFin: TDataModule},
  EmpresaSel in '..\..\..\..\..\MDL\FIN\v01_01\Lcts\Gerencia\EmpresaSel.pas' {FmEmpresaSel},
  UnFinanceiro in '..\..\..\..\..\MDL\FIN\v01_01\Units\UnFinanceiro.pas',
  LctEncerraMes in '..\..\..\..\..\MDL\FIN\v01_01\Lcts\Gerencia\LctEncerraMes.pas' {FmLctEncerraMes},
  LctEdit in '..\..\..\..\..\MDL\FIN\v01_01\Lcts\InsEdit\LctEdit.pas' {FmLctEdit},
  Transfer2 in '..\..\..\..\..\MDL\FIN\v01_01\Lcts\InsEdit\Transfer2.pas' {FmTransfer2},
  TransferCtas in '..\..\..\..\..\MDL\FIN\v01_01\Lcts\InsEdit\TransferCtas.pas' {FmTransferCtas},
  QuitaDoc2 in '..\..\..\..\..\MDL\FIN\v01_01\Lcts\InsEdit\QuitaDoc2.pas' {FmQuitaDoc2},
  LctPgVarios in '..\..\..\..\..\MDL\FIN\v01_01\Lcts\InsEdit\LctPgVarios.pas' {FmLctPgVarios},
  SomaDinheiro in '..\..\..\..\..\MDL\FIN\v01_01\Lcts\Gerencia\SomaDinheiro.pas' {FmSomaDinheiro},
  SomaDinheiroCH in '..\..\..\..\..\MDL\FIN\v01_01\Lcts\Gerencia\SomaDinheiroCH.pas' {FmSomaDinheiroCH},
  CartPgto in '..\..\..\..\..\MDL\FIN\v01_01\Lcts\InsEdit\CartPgto.pas' {FmCartPgto},
  CartPgtoEdit in '..\..\..\..\..\MDL\FIN\v01_01\Lcts\InsEdit\CartPgtoEdit.pas' {FmCartPgtoEdit},
  LctPgEmCxa in '..\..\..\..\..\MDL\FIN\v01_01\Lcts\Gerencia\LctPgEmCxa.pas' {FmLctPgEmCxa},
  LocLancto in '..\..\..\..\..\MDL\FIN\v01_01\Lcts\Gerencia\LocLancto.pas' {FmLocLancto},
  LocDefs in '..\..\..\..\..\MDL\FIN\v01_01\Lcts\Gerencia\LocDefs.pas' {FmLocDefs},
  LctMudaCart in '..\..\..\..\..\MDL\FIN\v01_01\Lcts\InsEdit\LctMudaCart.pas' {FmLctMudaCart},
  Concilia in '..\..\..\..\..\MDL\CMEB\v01_01\Concilia.pas' {FmConcilia},
  SelConta in '..\..\..\..\..\MDL\CMEB\v01_01\SelConta.pas' {FmSelConta},
  GetCarteira in '..\..\..\..\..\MDL\CMEB\v01_01\GetCarteira.pas' {FmGetCarteira},
  ConciliaXLSLoad in '..\..\..\..\..\MDL\CMEB\v01_01\ConciliaXLSLoad.pas' {FmConciliaXLSLoad},
  ConciliaOFX in '..\..\..\..\..\MDL\CMEB\v01_01\ConciliaOFX.pas' {FmConciliaOFX},
  ConciliaMultiCtas in '..\..\..\..\..\MDL\CMEB\v01_01\ConciliaMultiCtas.pas' {FmConciliaMultiCtas},
  Plano in '..\..\..\..\..\MDL\FIN\v01_01\Planos\Plano.pas' {FmPlano},
  Conjuntos in '..\..\..\..\..\MDL\FIN\v01_01\Planos\Conjuntos.pas' {FmConjuntos},
  Grupos in '..\..\..\..\..\MDL\FIN\v01_01\Planos\Grupos.pas' {FmGrupos},
  SubGrupos in '..\..\..\..\..\MDL\FIN\v01_01\Planos\SubGrupos.pas' {FmSubGrupos},
  SubGruposExclui in '..\..\..\..\..\MDL\FIN\v01_01\Planos\SubGruposExclui.pas' {FmSubGruposExclui},
  Contas in '..\..\..\..\..\MDL\FIN\v01_01\Planos\Contas.pas' {FmContas},
  ContasExclui in '..\..\..\..\..\MDL\FIN\v01_01\Planos\ContasExclui.pas' {FmContasExclui},
  ContasMes in '..\..\..\..\..\MDL\FIN\v01_01\Planos\ContasMes.pas' {FmContasMes},
  ContasSdoImp in '..\..\..\..\..\MDL\FIN\v01_01\Planos\ContasSdoImp.pas' {FmContasSdoImp},
  EventosCad in '..\..\..\..\..\MDL\FIN\v01_01\Forms\EventosCad.pas' {FmEventosCad},
  Carteiras in '..\..\..\..\..\MDL\FIN\v01_01\Forms\Carteiras.pas' {FmCarteiras},
  CarteirasU in '..\..\..\..\..\MDL\FIN\v01_01\Forms\CarteirasU.pas' {FmCarteirasU},
  CashBal in '..\..\..\..\..\MDL\FIN\v01_01\Relatorios\CashBal.pas' {FmCashBal},
  FinOrfao1 in '..\..\..\..\..\MDL\FIN\v01_01\Forms\FinOrfao1.pas' {FmFinOrfao1},
  ContasHistAtz in '..\..\..\..\..\MDL\FIN\v01_01\Planos\ContasHistAtz.pas' {FmContasHistAtz},
  Resmes in '..\..\..\..\..\MDL\FIN\v01_01\Relatorios\Resmes.pas' {FmResMes},
  Pesquisas in '..\..\..\..\..\MDL\FIN\v01_01\Relatorios\Pesquisas.pas' {FmPesquisas},
  PrincipalImp in '..\..\..\..\..\MDL\FIN\v01_01\Relatorios\PrincipalImp.pas' {FmPrincipalImp},
  PesqContaCtrl in '..\..\..\..\..\UTL\_FRM\v01_01\PesqContaCtrl.pas' {FmPesqContaCtrl},
  CtaGruCta in '..\..\..\..\..\UTL\_FRM\v01_01\CtaGruCta.pas' {FmCtaGruCta},
  CtaGruImp in '..\..\..\..\..\UTL\_FRM\v01_01\CtaGruImp.pas' {FmCtaGruImp},
  Extratos in '..\..\..\..\..\MDL\FIN\v01_01\Relatorios\Extratos.pas' {FmExtratos},
  CartTalCH in '..\..\..\..\..\MDL\FIN\v01_01\Forms\CartTalCH.pas' {FmCartTalCH},
  LctAjustes in '..\..\..\..\..\MDL\FIN\v01_01\Lcts\Gerencia\LctAjustes.pas' {FmLctAjustes},
  Saldos in '..\..\..\..\..\MDL\FIN\v01_01\Relatorios\Saldos.pas' {FmSaldos},
  Formularios in '..\..\..\..\..\MDL\FIN\v01_01\Relatorios\Formularios.pas' {FmFormularios},
  PlaCtas in '..\..\..\..\..\MDL\FIN\v01_01\Planos\PlaCtas.pas' {FmPlaCtas},
  LctDuplic in '..\..\..\..\..\MDL\FIN\v01_01\Lcts\InsEdit\LctDuplic.pas' {FmLctDuplic},
  CentroCustoCtas in '..\..\..\..\..\MDL\FIN\v01_01\Forms\CentroCustoCtas.pas' {FmCentroCustoCtas},
  CentroCusto in '..\..\..\..\..\MDL\FIN\v01_01\Forms\CentroCusto.pas' {FmCentroCusto},
  ReceDesp in '..\..\..\..\..\MDL\FIN\v01_01\Relatorios\ReceDesp.pas' {FmReceDesp},
  LctMudaConta in '..\..\..\..\..\MDL\FIN\v01_01\Lcts\Gerencia\LctMudaConta.pas' {FmLctMudaConta},
  UnProtocol_Tabs in '..\..\..\..\..\MDL\PTK\v02_01_Beta\UnProtocol_Tabs.pas',
  ZForge in '..\..\..\..\..\UTL\_FRM\v01_01\ZForge.pas' {FmZForge},
  CashPreCta in '..\..\..\..\..\MDL\FIN\v01_01\Forms\CashPreCta.pas' {FmCashPreCta},
  LctEdita in '..\..\..\..\..\MDL\FIN\v01_01\Lcts\InsEdit\LctEdita.pas' {FmLctEdita},
  CopiaDoc in '..\..\..\..\..\MDL\FIN\v01_01\Lcts\Gerencia\CopiaDoc.pas' {FmCopiaDoc},
  Entidade2Imp in '..\..\..\..\..\MDL\ENT\v02_01\Entidade2Imp.pas' {FmEntidade2Imp},
  PesqESel in '..\..\..\..\..\UTL\_FRM\v01_01\PesqESel.pas' {FmPesqESel},
  MeuDBUses in '..\..\..\..\..\UTL\MySQL\v01_01\MeuDBUses.pas' {FmMeuDBUses},
  IndiPag in '..\..\..\..\..\MDL\FIN\v01_01\Forms\IndiPag.pas' {FmIndiPag},
  SelRadioGroup in '..\..\..\..\..\UTL\_FRM\v01_01\SelRadioGroup.pas' {FmSelRadioGroup},
  ContasLnkEdit in '..\..\..\..\..\MDL\CMEB\v01_01\ContasLnkEdit.pas' {FmContasLnkEdit},
  ContasLnk in '..\..\..\..\..\MDL\CMEB\v01_01\ContasLnk.pas' {FmContasLnk},
  ContasLnkIts in '..\..\..\..\..\MDL\CMEB\v01_01\ContasLnkIts.pas' {FmContasLnkIts},
  LinkRankSkin in '..\..\..\..\..\UTL\_FRM\v01_01\LinkRankSkin.pas' {FmLinkRankSkin},
  CoresVCLSkin in '..\..\..\..\..\UTL\_FRM\v01_01\CoresVCLSkin.pas' {FmCoresVCLSkin},
  dmkSOAP in '..\..\..\..\..\MDL\WEB\v01_01\WebService\dmkSOAP.pas',
  UnDmkProcFunc in '..\..\..\..\..\UTL\_UNT\v01_01\UnDmkProcFunc.pas',
  UCreateEDrop in '..\..\..\..\..\UTL\_UNT\v01_01\UCreateEDrop.pas',
  CambioCot in '..\..\..\..\..\UTL\Cambio\v01_01\CambioCot.pas' {FmCambioCot},
  CambioMda in '..\..\..\..\..\UTL\Cambio\v01_01\CambioMda.pas' {FmCambioMda},
  CambioUsu in '..\..\..\..\..\UTL\Cambio\v01_01\CambioUsu.pas' {FmCambioUsu},
  dmkDAC_PF in '..\..\..\..\..\UTL\MySQL\v01_01\dmkDAC_PF.pas',
  EntiCEP2 in '..\..\..\..\..\MDL\ENT\v02_01\CEP\EntiCEP2.pas' {FmEntiCEP2},
  CustomFR3Imp in '..\..\..\..\..\UTL\Print\v01_01\CustomFR3Imp.pas' {FmCustomFR3Imp},
  CustomFR3 in '..\..\..\..\..\UTL\Print\v01_01\CustomFR3.pas' {FmCustomFR3},
  cfgAtributos in '..\..\..\..\..\UTL\_FRM\v01_01\cfgAtributos.pas',
  AtrDef in '..\..\..\..\..\UTL\_FRM\v01_01\AtrDef.pas' {FmAtrDef},
  AtrCad in '..\..\..\..\..\UTL\_FRM\v01_01\AtrCad.pas' {FmAtrCad},
  AtrIts in '..\..\..\..\..\UTL\_FRM\v01_01\AtrIts.pas' {FmAtrIts},
  EntiCliInt in '..\..\..\..\..\MDL\EMP\v01_01\EntiCliInt.pas' {FmEntiCliInt},
  EntiMapa in '..\..\..\..\..\MDL\ENT\v02_01\EntiMapa.pas' {FmEntiMapa},
  CadLista in '..\..\..\..\..\UTL\MySQL\v01_01\CadLista.pas' {FmCadLista},
  CfgCadLista in '..\..\..\..\..\UTL\MySQL\v01_01\CfgCadLista.pas',
  Anotacoes in '..\..\..\..\..\MDL\ANOT\v01_01\Anotacoes.pas' {FmAnotacoes},
  ContasHistSdo3 in '..\..\..\..\..\MDL\FIN\v01_01\Planos\ContasHistSdo3.pas' {FmContasHistSdo3},
  ContasNiv in '..\..\..\..\..\MDL\FIN\v01_01\Planos\ContasNiv.pas' {FmContasNiv},
  NivelEGenero in '..\..\..\..\..\MDL\FIN\v01_01\Planos\NivelEGenero.pas' {FmNivelEGenero},
  ContasNivSel in '..\..\..\..\..\MDL\FIN\v01_01\Planos\ContasNivSel.pas' {FmContasNivSel},
  UnMyPrinters in '..\..\..\..\..\MDL\PRIN\v01_01\UnMyPrinters.pas',
  ContasConfEmis in '..\..\..\..\..\MDL\FIN\v01_01\Planos\ContasConfEmis.pas' {FmContasConfEmis},
  ContasMesGer in '..\..\..\..\..\MDL\FIN\v01_01\Planos\ContasMesGer.pas' {FmContasMesGer},
  ContasConfCad in '..\..\..\..\..\MDL\FIN\v01_01\Planos\ContasConfCad.pas' {FmContasConfCad},
  ContasConfPgto in '..\..\..\..\..\MDL\FIN\v01_01\Planos\ContasConfPgto.pas' {FmContasConfPgto},
  FTPUploads in '..\..\..\..\..\MDL\ARQ\v01_01\Geral\FTPUploads.pas' {FmFTPUploads},
  ApplicationConfiguration in '..\..\..\..\..\MDL\ARQ\v01_01\Geral\ApplicationConfiguration.pas',
  FTPSiteInfo in '..\..\..\..\..\MDL\ARQ\v01_01\Geral\FTPSiteInfo.pas',
  WBFuncs in '..\..\..\..\..\UTL\WEB\HTML\v01_01\WBFuncs.pas',
  UnBloq_Tabs in '..\..\..\..\..\MDL\BLQ\v02_02_BETA\Empresas\UnBloq_Tabs.pas',
  UnCNAB_Tabs in '..\..\..\..\..\MDL\CNAB\v01_01\UnCNAB_Tabs.pas',
  ProtocoMot in '..\..\..\..\..\MDL\PTK\v02_01_Beta\ProtocoMot.pas' {FmProtocoMot},
  ProtocoOco in '..\..\..\..\..\MDL\PTK\v02_01_Beta\ProtocoOco.pas' {FmProtocoOco},
  Protocolos in '..\..\..\..\..\MDL\PTK\v02_01_Beta\Protocolos.pas' {FmProtocolos},
  UnBco_Rem in '..\..\..\..\..\MDL\BCO\v01_01\Geral\UnBco_Rem.pas',
  UnBancos in '..\..\..\..\..\MDL\BCO\v01_01\Geral\UnBancos.pas',
  ProtocoPak in '..\..\..\..\..\MDL\PTK\v02_01_Beta\ProtocoPak.pas' {FmProtocoPak},
  CNAB_Rem in '..\..\..\..\..\MDL\CNAB\v01_01\CNAB_Rem.pas' {FmCNAB_Rem},
  ProtocoMan in '..\..\..\..\..\MDL\PTK\v02_01_Beta\ProtocoMan.pas' {FmProtocoMan},
  ProtocoManBase in '..\..\..\..\..\MDL\PTK\v02_01_Beta\ProtocoManBase.pas' {FmProtocoManBase},
  ModuleBloGeren in '..\..\..\..\..\MDL\BLQ\v02_02_BETA\Empresas\ModuleBloGeren.pas' {DBloGeren: TDataModule},
  BloGeren in '..\..\..\..\..\MDL\BLQ\v02_02_BETA\Empresas\BloGeren.pas' {FmBloGeren},
  BloGerenBaA in '..\..\..\..\..\MDL\BLQ\v02_02_BETA\Empresas\BloGerenBaA.pas' {FmBloGerenBaA},
  BloGerenNew in '..\..\..\..\..\MDL\BLQ\v02_02_BETA\Empresas\BloGerenNew.pas' {FmBloGerenNew},
  CNAB_Cfg in '..\..\..\..\..\MDL\CNAB\v01_01\CNAB_Cfg.pas' {FmCNAB_Cfg},
  BloGerenLocper in '..\..\..\..\..\MDL\BLQ\v02_02_BETA\Geral\BloGerenLocper.pas' {FmBloGerenLocper},
  BloGerenArreEnt in '..\..\..\..\..\MDL\BLQ\v02_02_BETA\Empresas\BloGerenArreEnt.pas' {FmBloGerenArreEnt},
  BloGerenInadImp in '..\..\..\..\..\MDL\BLQ\v02_02_BETA\Empresas\BloGerenInadImp.pas' {FmBloGerenInadimp},
  BloGerenInadimpBloq in '..\..\..\..\..\MDL\BLQ\v02_02_BETA\Empresas\BloGerenInadimpBloq.pas' {FmBloGerenInadimpBloq},
  BloGerenBaAVen in '..\..\..\..\..\MDL\BLQ\v02_02_BETA\Empresas\BloGerenBaAVen.pas' {FmBloGerenBaAVen},
  BloArre in '..\..\..\..\..\MDL\BLQ\v02_02_BETA\Empresas\BloArre.pas' {FmBloArre},
  BloArreIts in '..\..\..\..\..\MDL\BLQ\v02_02_BETA\Empresas\BloArreIts.pas' {FmBloArreIts},
  BloArreIGPM in '..\..\..\..\..\MDL\BLQ\v02_02_BETA\Empresas\BloArreIGPM.pas' {FmBloArreIGPM},
  BloOpcoes in '..\..\..\..\..\MDL\BLQ\v02_02_BETA\Empresas\BloOpcoes.pas' {FmBloOpcoes},
  BloAvulso in '..\..\..\..\..\MDL\BLQ\v02_02_BETA\Empresas\BloAvulso.pas' {FmBloAvulso},
  EntiContat in '..\..\..\..\..\MDL\ENT\v02_01\EntiContat.pas' {FmEntiContat},
  EntiSrvPro in '..\..\..\..\..\MDL\ENT\v02_01\EntiSrvPro.pas' {FmEntiSrvPro},
  CheckAtributos in '..\..\..\..\..\MDL\GRAD\v01_01\CheckAtributos.pas' {FmCheckAtributos},
  CheckCores in '..\..\..\..\..\MDL\GRAD\v01_01\CheckCores.pas' {FmCheckCores},
  CheckOnStringGrid in '..\..\..\..\..\MDL\GRAD\v01_01\CheckOnStringGrid.pas' {FmCheckOnStringGrid},
  ClasFisc in '..\..\..\..\..\MDL\GRAD\v01_01\ClasFisc.pas' {FmClasFisc},
  Embalagens in '..\..\..\..\..\MDL\GRAD\v01_01\Embalagens.pas' {FmEmbalagens},
  GraAtrCad in '..\..\..\..\..\MDL\GRAD\v01_01\GraAtrCad.pas' {FmGraAtrCad},
  GraAtrIts in '..\..\..\..\..\MDL\GRAD\v01_01\GraAtrIts.pas' {FmGraAtrIts},
  GraComiss in '..\..\..\..\..\MDL\GRAD\v01_01\GraComiss.pas' {FmGraComiss},
  GraCorCad in '..\..\..\..\..\MDL\GRAD\v01_01\GraCorCad.pas' {FmGraCorCad},
  GraCorFam in '..\..\..\..\..\MDL\GRAD\v01_01\GraCorFam.pas' {FmGraCorFam},
  GraCorPan in '..\..\..\..\..\MDL\GRAD\v01_01\GraCorPan.pas' {FmGraCorPan},
  GraCusPrc in '..\..\..\..\..\MDL\GRAD\v01_01\GraCusPrc.pas' {FmGraCusPrc},
  GraCusPrcU in '..\..\..\..\..\MDL\GRAD\v01_01\GraCusPrcU.pas' {FmGraCusPrcU},
  UnGrade_Create in '..\..\..\..\..\MDL\GRAD\v01_01\UnGrade_Create.pas',
  UnGrade_Tabs in '..\..\..\..\..\MDL\GRAD\v01_01\UnGrade_Tabs.pas',
  GraFibCad in '..\..\..\..\..\MDL\GRAD\v01_01\GraFibCad.pas' {FmGraFibCad},
  GraGru1 in '..\..\..\..\..\MDL\GRAD\v01_01\GraGru1.pas' {FmGraGru1},
  GraGruAti in '..\..\..\..\..\MDL\GRAD\v01_01\GraGruAti.pas' {FmGraGruAti},
  GraGruAtr in '..\..\..\..\..\MDL\GRAD\v01_01\GraGruAtr.pas' {FmGraGruAtr},
  GraGruC in '..\..\..\..\..\MDL\GRAD\v01_01\GraGruC.pas' {FmGraGruC},
  GraGruCST in '..\..\..\..\..\MDL\GRAD\v01_01\GraGruCST.pas' {FmGraGruCST},
  GraGruDados in '..\..\..\..\..\MDL\GRAD\v01_01\GraGruDados.pas' {FmGraGruDados},
  GraGruFiscal in '..\..\..\..\..\MDL\GRAD\v01_01\GraGruFiscal.pas' {FmGraGruFiscal},
  GraGruN in '..\..\..\..\..\MDL\GRAD\v01_01\GraGruN.pas' {FmGraGruN},
  GraGruPesq1 in '..\..\..\..\..\MDL\GRAD\v01_01\GraGruPesq1.pas' {FmGraGruPesq1},
  GraGruPrc in '..\..\..\..\..\MDL\GRAD\v01_01\GraGruPrc.pas' {FmGraGruPrc},
  GraGruReduzido in '..\..\..\..\..\MDL\GRAD\v01_01\GraGruReduzido.pas' {FmGraGruReduzido},
  GraGruRSel in '..\..\..\..\..\MDL\GRAD\v01_01\GraGruRSel.pas' {FmGraGruRSel},
  GraGruT in '..\..\..\..\..\MDL\GRAD\v01_01\GraGruT.pas' {FmGraGruT},
  GraGruVal in '..\..\..\..\..\MDL\GRAD\v01_01\GraGruVal.pas' {FmGraGruVal},
  GraGruX in '..\..\..\..\..\MDL\GRAD\v01_01\GraGruX.pas' {FmGraGruX},
  GraImpConflitos in '..\..\..\..\..\MDL\GRAD\v01_01\GraImpConflitos.pas' {FmGraImpConflitos},
  GraImpLista in '..\..\..\..\..\MDL\GRAD\v01_01\GraImpLista.pas' {FmGraImpLista},
  GraOptEnt in '..\..\..\..\..\MDL\GRAD\v01_01\GraOptEnt.pas' {FmGraOptEnt},
  GraPlaCta in '..\..\..\..\..\MDL\GRAD\v01_01\GraPlaCta.pas' {FmGraPlaCta},
  GraSrv1 in '..\..\..\..\..\MDL\GRAD\v01_01\GraSrv1.pas' {FmGraSrv1},
  GraTamCad in '..\..\..\..\..\MDL\GRAD\v01_01\GraTamCad.pas' {FmGraTamCad},
  GraTecCad in '..\..\..\..\..\MDL\GRAD\v01_01\GraTecCad.pas' {FmGraTecCad},
  GraTecIts in '..\..\..\..\..\MDL\GRAD\v01_01\GraTecIts.pas' {FmGraTecIts},
  TabePrcCab in '..\..\..\..\..\MDL\GFAT\v01_01\TabePrcCab.pas' {FmTabePrcCab},
  TabePrcGrG in '..\..\..\..\..\MDL\GFAT\v01_01\TabePrcGrG.pas' {FmTabePrcGrG},
  TabePrcGrGMul in '..\..\..\..\..\MDL\GFAT\v01_01\TabePrcGrGMul.pas' {FmTabePrcGrGMul},
  TabePrcImp in '..\..\..\..\..\MDL\GFAT\v01_01\TabePrcImp.pas' {FmTabePrcImp},
  TabePrcNiv in '..\..\..\..\..\MDL\GFAT\v01_01\TabePrcNiv.pas' {FmTabePrcNiv},
  TabePrcPzG in '..\..\..\..\..\MDL\GFAT\v01_01\TabePrcPzG.pas' {FmTabePrcPzG},
  UnitListasGrade in '..\..\..\..\..\MDL\GRAD\v01_01\UnitListasGrade.pas',
  PrdGruNew in '..\..\..\..\..\MDL\GRAD\v01_01\PrdGruNew.pas' {FmPrdGruNew},
  PrdGruNewU in '..\..\..\..\..\MDL\GRAD\v01_01\PrdGruNewU.pas' {FmPrdGruNewU},
  PrdGrupAtr in '..\..\..\..\..\MDL\GRAD\v01_01\PrdGrupAtr.pas' {FmPrdGrupAtr},
  PrdGrupCen in '..\..\..\..\..\MDL\GRAD\v01_01\PrdGrupCen.pas' {FmPrdGrupCen},
  PrdGrupJan in '..\..\..\..\..\MDL\GRAD\v01_01\PrdGrupJan.pas' {FmPrdGrupJan},
  PrdGrupTip in '..\..\..\..\..\MDL\GRAD\v01_01\PrdGrupTip.pas' {FmPrdGrupTip},
  ModProd in '..\..\..\..\..\MDL\GRAD\v01_01\ModProd.pas' {DmProd: TDataModule},
  StqBalCad in '..\..\..\..\..\MDL\GRAD\v01_01\StqBalCad.pas' {FmStqBalCad},
  StqBalLei in '..\..\..\..\..\MDL\GRAD\v01_01\StqBalLei.pas' {FmStqBalLei},
  StqBalLeiIts in '..\..\..\..\..\MDL\GRAD\v01_01\StqBalLeiIts.pas' {FmStqBalLeiIts},
  StqBalTrf in '..\..\..\..\..\MDL\GRAD\v01_01\StqBalTrf.pas' {FmStqBalTrf},
  StqCenCad in '..\..\..\..\..\MDL\GRAD\v01_01\StqCenCad.pas' {FmStqCenCad},
  StqCenLoc in '..\..\..\..\..\MDL\GRAD\v01_01\StqCenLoc.pas' {FmStqCenLoc},
  StqInnCad in '..\..\..\..\..\MDL\GRAD\v01_01\StqInnCad.pas' {FmStqInnCad},
  StqInnIts in '..\..\..\..\..\MDL\GRAD\v01_01\StqInnIts.pas' {FmStqInnIts},
  StqInnNFe in '..\..\..\..\..\MDL\GRAD\v01_01\StqInnNFe.pas' {FmStqInnNFe},
  StqManCad in '..\..\..\..\..\MDL\GRAD\v01_01\StqManCad.pas' {FmStqManCad},
  StqManLei in '..\..\..\..\..\MDL\GRAD\v01_01\StqManLei.pas' {FmStqManLei},
  StqManLeiIts in '..\..\..\..\..\MDL\GRAD\v01_01\StqManLeiIts.pas' {FmStqManLeiIts},
  StqMovImped in '..\..\..\..\..\MDL\GRAD\v01_01\StqMovImped.pas' {FmStqMovImped},
  Fabricas in '..\..\..\..\..\MDL\GRAD\v01_01\Fabricas.pas' {FmFabricas},
  cabecMsg_v102 in '..\..\..\..\..\MDL\NFe\v_01_10\XSD\cabecMsg_v102.pas',
  FatSelRef in '..\..\..\..\..\MDL\GFAT\v01_01\FatSelRef.pas' {FmFatSelRef},
  MatPartCad in '..\..\..\..\..\MDL\GRAD\v01_01\MatPartCad.pas' {FmMatPartCad},
  MedOrdem in '..\..\..\..\..\MDL\GRAD\v01_01\MedOrdem.pas' {FmMedOrdem},
  CfgExpFile in '..\..\..\..\..\UTL\_FRM\v01_01\CfgExpFile.pas' {FmCfgExpFile},
  MasterSelFilial in '..\..\..\..\..\MDL\EMP\v01_01\MasterSelFilial.pas' {FmMasterSelFilial},
  FatPedImp in '..\..\..\..\..\MDL\GPED\v01_01\FatPedImp.pas' {FmFatPedImp},
  PediPrzIts1 in '..\..\..\..\..\MDL\Praz\v01_01\PediPrzIts1.pas' {FmPediPrzIts1},
  UnidMed in '..\..\..\..\..\MDL\UMED\v01_01\UnidMed.pas' {FmUnidMed},
  CadItemGrupo in '..\..\..\..\..\UTL\MySQL\v01_01\CadItemGrupo.pas' {FmCadItemGrupo},
  OpcoesGrad in '..\..\..\..\..\MDL\GRAD\v01_01\OpcoesGrad.pas' {FmOpcoesGrad},
  UnDmkWeb in '..\..\..\..\..\MDL\WEB\v01_01\UnDmkWeb.pas',
  CadRegistroSimples in '..\..\..\..\..\UTL\MySQL\v01_01\CadRegistroSimples.pas' {FmCadRegistroSimples},
  UnConsultasWeb in '..\..\..\..\..\MDL\WEB\v01_01\UnConsultasWeb.pas',
  EntiRFCPF in '..\..\..\..\..\MDL\ENT\v02_01\EntiRFCPF.pas' {FmEntiRFCPF},
  EntiRFCNPJ in '..\..\..\..\..\MDL\ENT\v02_01\EntiRFCNPJ.pas' {FmEntiRFCNPJ},
  GraFabCad in '..\..\..\..\..\MDL\GRAD\v01_01\GraFabCad.pas' {FmGraFabCad},
  GraFabMar in '..\..\..\..\..\MDL\GRAD\v01_01\GraFabMar.pas' {FmGraFabMar},
  GetDataEUser in '..\..\..\..\..\UTL\_FRM\v01_01\GetDataEUser.pas' {FmGetDataEUser},
  GetData in '..\..\..\..\..\UTL\_FRM\v01_01\GetData.pas' {FmGetData},
  ModuleFatura in '..\..\..\..\..\MDL\FIN\v01_01\DataModules\ModuleFatura.pas' {DmFatura: TDataModule},
  ParamsEmp in '..\..\..\..\..\MDL\EMP\v01_01\ParamsEmp.pas' {FmParamsEmp},
  ParamsNFs in '..\..\..\..\..\MDL\EMP\v01_01\ParamsNFs.pas' {FmParamsNFs},
  NFE_dll_TLB in '..\..\..\..\..\UTL\CAPICOM\v01_01\TLB\NFE_dll_TLB.pas',
  mscorlib_TLB in '..\..\..\..\..\UTL\CAPICOM\v01_01\TLB\mscorlib_TLB.pas',
  CapicomListas in '..\..\..\..\..\UTL\CAPICOM\v01_01\CapicomListas.pas' {FmCapicomListas},
  CAPICOM_TLB in '..\..\..\..\..\UTL\CAPICOM\v01_01\TLB\CAPICOM_TLB.pas',
  CapicomCertificado in '..\..\..\..\..\UTL\CAPICOM\v01_01\CapicomCertificado.pas' {FmCapicomCertificado},
  FatDivGer in '..\..\..\..\..\MDL\GFAT\v01_01\FatDivGer.pas' {FmFatDivGer},
  FatPedVol in '..\..\..\..\..\MDL\GFAT\v01_01\FatPedVol.pas' {FmFatPedVol},
  ModPediVda in '..\..\..\..\..\MDL\GFAT\v01_01\ModPediVda.pas' {DmPediVda: TDataModule},
  FatPedCuzSel in '..\..\..\..\..\MDL\GPED\v01_01\FatPedCuzSel.pas' {FmFatPedCuzSel},
  NFaInfCpl in '..\..\..\..\..\MDL\NFe\NFaInfCpl.pas' {FmNFaInfCpl},
  NFeInfCpl in '..\..\..\..\..\MDL\NFe\Geral\NFeInfCpl.pas' {FmNFeInfCpl},
  NFaEditCSOSN in '..\..\..\..\..\MDL\NFe\Fatura\NFaEditCSOSN.pas' {FmNFaEditCSOSN},
  MSXML2_TLB in '..\..\..\..\..\UTL\CAPICOM\v01_01\TLB\MSXML2_TLB.pas',
  NFeStatusServico in '..\..\..\..\..\MDL\NFe\v_01_10\WSDL\NFeStatusServico.pas',
  NFeGeraXML_0200 in '..\..\..\..\..\MDL\NFe\v_02_00\Geral\NFeGeraXML_0200.pas' {FmNFeGeraXML_0200},
  consStatServ_v200 in '..\..\..\..\..\MDL\NFe\v_02_00\XSD\consStatServ_v200.pas',
  consSitNFe_v200 in '..\..\..\..\..\MDL\NFe\v_02_00\XSD\consSitNFe_v200.pas',
  inutNFe_v200 in '..\..\..\..\..\MDL\NFe\v_02_00\XSD\inutNFe_v200.pas',
  nfe_v200 in '..\..\..\..\..\MDL\NFe\v_02_00\XSD\nfe_v200.pas',
  consReciNFe_v200 in '..\..\..\..\..\MDL\NFe\v_02_00\XSD\consReciNFe_v200.pas',
  cancNFe_v200 in '..\..\..\..\..\MDL\NFe\v_02_00\XSD\cancNFe_v200.pas',
  NFeBaixaXMLdaWeb_0200 in '..\..\..\..\..\MDL\NFe\v_02_00\Geral\NFeBaixaXMLdaWeb_0200.pas',
  NFe_Pesq_0000 in '..\..\..\..\..\MDL\NFe\Geral\NFe_Pesq_0000.pas' {FmNFe_Pesq_0000},
  NFeLEnC_0200 in '..\..\..\..\..\MDL\NFe\v_02_00\Servicos\NFeLEnC_0200.pas' {FmNFeLEnC_0200},
  NFeLEnU_0200 in '..\..\..\..\..\MDL\NFe\v_02_00\Servicos\NFeLEnU_0200.pas' {FmNFeLEnU_0200},
  NFeEveRCab in '..\..\..\..\..\MDL\NFe\Eventos\CartaDeCorrecao\v0100\NFeEveRCab.pas' {FmNFeEveRcab},
  EveGeraXMLCCe_0100 in '..\..\..\..\..\MDL\NFe\Eventos\CartaDeCorrecao\v0100\XSD\Produção\CCe_NT2011.003\EveGeraXMLCCe_0100.pas',
  CCe_v100 in '..\..\..\..\..\MDL\NFe\Eventos\CartaDeCorrecao\v0100\XSD\Produção\CCe_NT2011.003\CCe_v1.00a\Units\CCe_v100.pas',
  EveGeraXMLCan_0100 in '..\..\..\..\..\MDL\NFe\Eventos\Cancelamento\v0100\Evento_Canc_PL_111007\EveGeraXMLCan_0100.pas',
  eventoCancNFe_v100 in '..\..\..\..\..\MDL\NFe\Eventos\Cancelamento\v0100\Evento_Canc_PL_111007\eventoCancNFe_v100.pas',
  NFeEveRCCe in '..\..\..\..\..\MDL\NFe\Eventos\CartaDeCorrecao\v0100\NFeEveRCCe.pas' {FmNFeEveRCCe},
  NFe_Tabs in '..\..\..\..\..\MDL\NFe\NFe_Tabs.pas',
  NFeEveRCan in '..\..\..\..\..\MDL\NFe\Eventos\Cancelamento\v0100\NFeEveRCan.pas' {FmNFeEveRCan},
  NFeLEnI_0200 in '..\..\..\..\..\MDL\NFe\v_02_00\Servicos\NFeLEnI_0200.pas' {FmNFeLEnI_0200},
  FisRegCad in '..\..\..\..\..\MDL\GRAD\v01_01\FisRegCad.pas' {FmFisRegCad},
  FisRegMvt in '..\..\..\..\..\MDL\GRAD\v01_01\FisRegMvt.pas' {FmFisRegMvt},
  CFOP2003Load in '..\..\..\..\..\UTL\Tabelas\v01_01\Fiscal\CFOP2003Load.pas' {FmCFOP2003Load},
  FisAgrCad in '..\..\..\..\..\MDL\GRAD\v01_01\FisAgrCad.pas' {FmFisAgrCad},
  FisRegCFOP in '..\..\..\..\..\MDL\GRAD\v01_01\FisRegCFOP.pas' {FmFisRegCFOP},
  FisRegUFs in '..\..\..\..\..\MDL\GRAD\v01_01\FisRegUFs.pas' {FmFisRegUFs},
  FisRegUFx in '..\..\..\..\..\MDL\GRAD\v01_01\FisRegUFx.pas' {FmFisRegUFx},
  NFeCabB_0000 in '..\..\..\..\..\MDL\NFe\NF\NFeCabB_0000.pas' {FmNFeCabB_0000},
  NfeCabF_0000 in '..\..\..\..\..\MDL\NFe\NF\NfeCabF_0000.pas' {FmNFeCabF_0000},
  NfeCabG_0000 in '..\..\..\..\..\MDL\NFe\NF\NfeCabG_0000.pas' {FmNFeCabG_0000},
  NFeItsU_0000 in '..\..\..\..\..\MDL\NFe\NF\NFeItsU_0000.pas' {FmNFeItsU_0000},
  NfeCabY_0000 in '..\..\..\..\..\MDL\NFe\NF\NfeCabY_0000.pas' {FmNFeCabY_0000},
  NFeItsIDI_0000 in '..\..\..\..\..\MDL\NFe\NF\NFeItsIDI_0000.pas' {FmNFeItsIDI_0000},
  NFeItsIDIa_0000 in '..\..\..\..\..\MDL\NFe\NF\NFeItsIDIa_0000.pas' {FmNFeItsIDIa_0000},
  NFeCabA_0000_Pesq in '..\..\..\..\..\MDL\NFe\NF\NFeCabA_0000_Pesq.pas' {FmNFeCabA_0000_Pesq},
  NFeXMLGerencia in '..\..\..\..\..\MDL\NFe\Geral\NFeXMLGerencia.pas',
  NFeDocOrfao in '..\..\..\..\..\MDL\NFe\Geral\NFeDocOrfao.pas' {FmNFeDocOrfao},
  NFaEditCSOSNAlq in '..\..\..\..\..\MDL\NFe\Fatura\NFaEditCSOSNAlq.pas' {FmNFaEditCSOSNAlq},
  Restaura2 in '..\..\..\..\..\UTL\MySQL\v01_01\Restaura2.pas' {FmRestaura2},
  FatDivCab in '..\..\..\..\..\MDL\GFAT\v01_01\FatDivCab.pas' {FmFatDivCab},
  PediPrzCab1 in '..\..\..\..\..\MDL\Praz\v01_01\PediPrzCab1.pas' {FmPediPrzCab1},
  FatDivGru in '..\..\..\..\..\MDL\GFAT\v01_01\FatDivGru.pas' {FmFatDivGru},
  FatDivGruIts in '..\..\..\..\..\MDL\GFAT\v01_01\FatDivGruIts.pas' {FmFatDivGruIts},
  FatDivRef in '..\..\..\..\..\MDL\GFAT\v01_01\FatDivRef.pas' {FmFatDivRef},
  FatDivCms in '..\..\..\..\..\MDL\GFAT\v01_01\FatDivCms.pas' {FmFatDivCms},
  NCMs in '..\..\..\..\..\UTL\Tabelas\v01_01\Fiscal\NCM\NCMs.pas' {FmNCMs},
  NatOper in '..\..\..\..\..\UTL\Tabelas\v01_01\Fiscal\NatOper.pas' {FmNatOper},
  NFeValidaXML_0200 in '..\..\..\..\..\MDL\NFe\v_02_00\Geral\NFeValidaXML_0200.pas' {FmNFeValidaXML_0200},
  NFeValidaXML_0110 in '..\..\..\..\..\MDL\NFe\v_01_10\Geral\NFeValidaXML_0110.pas' {FmNFeValidaXML_0110},
  NFeJust in '..\..\..\..\..\MDL\NFe\Geral\NFeJust.pas' {FmNFeJust},
  NFeExportaXML_B in '..\..\..\..\..\MDL\NFe\Geral\NFeExportaXML_B.pas' {FmNFeExportaXML_B},
  NFeEveRLoE in '..\..\..\..\..\MDL\NFe\Eventos\CartaDeCorrecao\v0100\NFeEveRLoE.pas' {FmNFeEveRLoE},
  NFeEveRLoEAdd in '..\..\..\..\..\MDL\NFe\Eventos\CartaDeCorrecao\v0100\NFeEveRLoEAdd.pas' {FmNFeEveRLoEAdd},
  NFMoDocFis in '..\..\..\..\..\MDL\NFe\Outros\NFMoDocFis.pas' {FmNFMoDocFis},
  LoadXML in '..\..\..\..\..\MDL\NFe\Teste\LoadXML.pas' {FmLoadXML},
  retConsStatServ_v107 in '..\..\..\..\..\MDL\NFe\v_01_10\XSD\retConsStatServ_v107.pas',
  NFeConsulta_0201 in '..\..\..\..\..\MDL\NFe\v_02_00\Servicos\NFeConsulta_0201.pas' {FmNFeConsulta_0201},
  NFeLeXML_0200 in '..\..\..\..\..\MDL\NFe\v_02_00\Geral\NFeLeXML_0200.pas',
  NFeExportaXML in '..\..\..\..\..\MDL\NFe\Geral\NFeExportaXML.pas' {FmNFeExportaXML},
  UFsICMS in '..\..\..\..\..\MDL\ENT\v02_01\UFsICMS.pas' {FmUFsICMS},
  NFeCntngnc in '..\..\..\..\..\MDL\NFe\Geral\NFeCntngnc.pas' {FmNFeCntngnc},
  Textos in '..\..\..\..\..\UTL\Textos\v01_01\Textos.pas' {FmTextos},
  Cartas in '..\..\..\..\..\MDL\TEXT\v01_01\Cartas.pas' {FmCartas},
  UCreateFin in '..\..\..\..\..\MDL\FIN\v01_01\Units\UCreateFin.pas',
  CartaG in '..\..\..\..\..\MDL\TEXT\v01_01\CartaG.pas' {FmCartaG},
  Contratos in '..\..\..\..\..\MDL\CNTR\v01_01\Contratos.pas' {FmContratos},
  ContratMSWord in '..\..\..\..\..\MDL\CNTR\v01_01\ContratMSWord.pas' {FmContratMSWord},
  ContratTag in '..\..\..\..\..\MDL\CNTR\v01_01\ContratTag.pas' {FmContratTag},
  UnContrat_Tabs in '..\..\..\..\..\MDL\CNTR\v01_01\UnContrat_Tabs.pas',
  Protocolo in '..\..\..\..\..\MDL\PTK\v02_01_Beta\Protocolo.pas',
  ModuleNFe_0000 in '..\..\..\..\..\MDL\NFe\Geral\ModuleNFe_0000.pas' {DmNFe_0000: TDataModule},
  ListServ in '..\..\..\..\..\UTL\Tabelas\v01_01\ListServ.pas' {FmListServ},
  VerifiDBTerceiros in '..\..\..\..\..\UTL\MySQL\v01_01\VerifiDBTerceiros.pas' {FmVerifiDBTerceiros},
  CFOP2003 in '..\..\..\..\..\UTL\Tabelas\v01_01\Fiscal\CFOP2003.pas' {FmCFOP2003},
  CNAE21 in '..\..\..\..\..\UTL\Tabelas\v01_01\CNAE21.pas' {FmCNAE21},
  CNAE21Cad in '..\..\..\..\..\UTL\Tabelas\v01_01\CNAE21Cad.pas' {FmCNAE21Cad},
  SPED_EFD_Tabelas in '..\..\..\..\..\MDL\SPED\v00_01\SPED_EFD_Tabelas.pas' {FmSPED_EFD_Tabelas},
  NFeLoadTabs in '..\..\..\..\..\MDL\NFe\Geral\NFeLoadTabs.pas' {FmNFeLoadTabs},
  Entidade2 in '..\..\..\..\..\MDL\ENT\v02_01\Entidade2.pas' {FmEntidade2},
  PesqRCNAE21 in '..\..\..\..\..\UTL\Tabelas\v01_01\PesqRCNAE21.pas' {FmPesqRCNAE21},
  PesqCNAE21 in '..\..\..\..\..\UTL\Tabelas\v01_01\PesqCNAE21.pas' {FmPesqCNAE21},
  Geral_TbTerc in '..\..\..\..\..\UTL\_UNT\v01_01\Geral_TbTerc.pas',
  NFeSteps_0200 in '..\..\..\..\..\MDL\NFe\v_02_00\Geral\NFeSteps_0200.pas' {FmNFeSteps_0200},
  Textos2 in '..\..\..\..\..\UTL\Textos\v01_01\Textos2.pas' {FmTextos2},
  NFSe_0000_Module in '..\..\..\..\..\MDL\NFSe\Geral\NFSe_0000_Module.pas' {DmNFSe_0000: TDataModule},
  NFSe_Create in '..\..\..\..\..\MDL\NFSe\Geral\NFSe_Create.pas',
  NFSe_Tabs in '..\..\..\..\..\MDL\NFSe\Geral\NFSe_Tabs.pas',
  NFSe_TbTerc in '..\..\..\..\..\MDL\NFSe\Geral\NFSe_TbTerc.pas',
  NFSeSrvCad in '..\..\..\..\..\MDL\NFSe\Geral\NFSeSrvCad.pas' {FmNFSeSrvCad},
  TsErrosAlertasCab in '..\..\..\..\..\MDL\NFSe\Geral\TsErrosAlertasCab.pas' {FmTsErrosAlertasCab},
  TsErrosAlertasIts in '..\..\..\..\..\MDL\NFSe\Geral\TsErrosAlertasIts.pas' {FmTsErrosAlertasIts},
  NFSe_PF_0000 in '..\..\..\..\..\MDL\NFSe\Geral\NFSe_PF_0000.pas',
  NFSe_Edit_0201 in '..\..\..\..\..\MDL\NFSe\v_02_01\Geral\NFSe_Edit_0201.pas' {FmNFSe_Edit_0201},
  NFSeABRASF_0201 in '..\..\..\..\..\MDL\NFSe\NFSeABRASF_0201.pas',
  NFSeLRpsC_0201 in '..\..\..\..\..\MDL\NFSe\v_02_01\Geral\NFSeLRpsC_0201.pas' {FmNFSeLRpsC_0201},
  NFSeLRpsI_0201 in '..\..\..\..\..\MDL\NFSe\v_02_01\Geral\NFSeLRpsI_0201.pas' {FmNFSeLRpsI_0201},
  NFSe_RPSPesq in '..\..\..\..\..\MDL\NFSe\Geral\NFSe_RPSPesq.pas' {FmNFSe_RPSPesq},
  NFSe_PF_0201 in '..\..\..\..\..\MDL\NFSe\v_02_01\Geral\NFSe_PF_0201.pas',
  NFSe_NFSPesq in '..\..\..\..\..\MDL\NFSe\Geral\NFSe_NFSPesq.pas' {FmNFSe_NFSPesq},
  NFSeFatCab in '..\..\..\..\..\MDL\NFSe\Geral\NFSeFatCab.pas' {FmNFSeFatCab},
  NFSeFatAdd in '..\..\..\..\..\MDL\NFSe\Geral\NFSeFatAdd.pas' {FmNFSeFatAdd},
  NFSeMenCab in '..\..\..\..\..\MDL\NFSe\Geral\NFSeMenCab.pas' {FmNFSeMenCab},
  NFSeMenCad in '..\..\..\..\..\MDL\NFSe\Geral\NFSeMenCad.pas' {FmNFSeMenCad},
  NFSe_LoadXML_0201 in '..\..\..\..\..\MDL\NFSe\v_02_01\NFSe_LoadXML_0201.pas' {FmNFSe_LoadXML_0201},
  MailEnv in '..\..\..\..\..\MDL\MAIL\v01_01\MailEnv.pas' {FmMailEnv},
  WLogin in '..\..\..\..\..\MDL\WEB\v01_01\WLogin.pas' {FmWLogin},
  WSuporte in '..\..\..\..\..\MDL\HELP\v01_01\Geral\WSuporte.pas' {FmWSuporte},
  WOrdSerIncRap in '..\..\..\..\..\MDL\HELP\v01_01\Geral\WOrdSerIncRap.pas' {FmWOrdSerIncRap},
  WebBrowser in '..\..\..\..\..\MDL\WEB\v01_01\WebBrowser.pas' {FmWebBrowser},
  EntiImagens in '..\..\..\..\..\MDL\ENT\v02_01\EntiImagens.pas' {FmEntiImagens},
  Entidade2ImpOne in '..\..\..\..\..\MDL\ENT\v02_01\Entidade2ImpOne.pas' {FmEntidade2ImpOne},
  UnMailEnv in '..\..\..\..\..\MDL\MAIL\v01_01\Units\VCL\UnMailEnv.pas',
  MailEnvEmail in '..\..\..\..\..\MDL\MAIL\v01_01\MailEnvEmail.pas' {FmMailEnvEmail},
  EntiRE_IE in '..\..\..\..\..\MDL\ENT\v02_01\EntiRE_IE.pas' {FmEntiRE_IE},
  consCad_v200 in '..\..\..\..\..\MDL\NFe\v_02_00\XSD\consCad_v200.pas',
  ContrDfCab in '..\..\..\..\..\MDL\CNTR\v01_01\ContrDfCab.pas' {FmContrDfCab},
  ContrDfIts in '..\..\..\..\..\MDL\CNTR\v01_01\ContrDfIts.pas' {FmContrDfIts},
  SelCods in '..\..\..\..\..\UTL\_FRM\v01_01\SelCods.pas' {FmSelCods},
  DesignerFR3 in '..\..\..\..\..\UTL\Print\v01_01\DesignerFR3.pas' {FmDesignerFR3},
  CtrTagNivCab in '..\..\..\..\..\MDL\CNTR\v01_01\CtrTagNivCab.pas' {FmCtrTagNivCab},
  CtrTagNivX in '..\..\..\..\..\MDL\CNTR\v01_01\CtrTagNivX.pas' {FmCtrTagNivX},
  CreateGeral in '..\..\..\..\..\UTL\MySQL\v01_01\CreateGeral.pas',
  VerificaConexoes in '..\..\..\..\..\UTL\_FRM\v01_01\VerificaConexoes.pas' {FmVerificaConexoes},
  EntiConEntUnit in '..\..\..\..\..\MDL\ENT\v02_01\EntiConEntUnit.pas',
  EntiConEnt in '..\..\..\..\..\MDL\ENT\v02_01\EntiConEnt.pas' {FmEntiConEnt},
  ContatosEnt in '..\..\..\..\..\MDL\ENT\v02_01\ContatosEnt.pas' {FmContatosEnt},
  consNFeDest_v101 in '..\..\..\..\..\MDL\NFe\ConsultaNFDest\v_01_01\XSD\consNFeDest_v101.pas',
  downloadNFe_v100 in '..\..\..\..\..\MDL\NFe\ConsultaNFDest\v_01_01\XSD\downloadNFe_v100.pas',
  NFeEveRMDe in '..\..\..\..\..\MDL\NFe\Eventos\ManifestacaoDestinatario\v0101\NFeEveRMDe.pas' {FmNFeEveRMDe},
  EveGeraXMLMDe_0100 in '..\..\..\..\..\MDL\NFe\Eventos\ManifestacaoDestinatario\v0101\EveGeraXMLMDe_0100.pas',
  confRecebto_v100 in '..\..\..\..\..\MDL\NFe\Eventos\ManifestacaoDestinatario\v0101\Manifestacao_Destinatario_PL_v1.01\EventoManifestaDestinat_v100\XSD\confRecebto_v100.pas',
  NFeDesConC_0101 in '..\..\..\..\..\MDL\NFe\v_02_00\Servicos\NFeDesConC_0101.pas' {FmNFeDesConC_0101},
  NFeDesDowC_0100 in '..\..\..\..\..\MDL\NFe\v_02_00\Servicos\NFeDesDowC_0100.pas' {FmNFeDesDowC_0100},
  CreateNFe in '..\..\..\..\..\MDL\NFe\Geral\CreateNFe.pas',
  NFeDesDowI_0100 in '..\..\..\..\..\MDL\NFe\v_02_00\Servicos\NFeDesDowI_0100.pas' {FmNFeDesDowI_0100},
  EntiCfgRel in '..\..\..\..\..\MDL\ENT\v02_01\EntiCfgRel.pas' {FmEntiCfgRel},
  UnMyLinguas in '..\..\..\..\..\..\MultiOS\AllOS\Listas\UnMyLinguas.pas',
  UnDmkEnums in '..\..\..\..\..\..\MultiOS\UTL\_UNT\v01_01\UnDmkEnums.pas',
  UnFTP in '..\..\..\..\..\MDL\ARQ\v01_01\Geral\UnFTP.pas',
  ModuleLct2 in '..\..\..\..\..\MDL\FIN\v01_01\DataModules\ModuleLct2.pas' {DmLct2: TDataModule},
  LctGer2 in '..\..\..\..\..\MDL\FIN\v01_01\Lcts\Gerencia\LctGer2.pas' {FmLctGer2},
  UnBloquetos in '..\..\..\..\..\MDL\BLQ\v02_02_BETA\Empresas\UnBloquetos.pas',
  PreEmail in '..\..\..\..\..\MDL\MAIL\v01_01\PreEmail.pas' {FmPreEmail},
  PreEmailMsg in '..\..\..\..\..\MDL\MAIL\v01_01\PreEmailMsg.pas' {FmPreEmailMsg},
  MailCfg in '..\..\..\..\..\MDL\MAIL\v01_01\MailCfg.pas' {FmMailCfg},
  UnAppListas in '..\..\..\..\..\..\MultiOS\Aplicativos\Toolrent\UnAppListas.pas',
  BloCNAB_Ret in '..\..\..\..\..\MDL\BLQ\v02_02_BETA\Geral\BloCNAB_Ret.pas' {FmBloCNAB_Ret},
  CNAB_DuplCad in '..\..\..\..\..\MDL\CNAB\v01_01\CNAB_DuplCad.pas' {FmCNAB_DuplCad},
  IGPMCad in '..\..\..\..\..\UTL\Tabelas\v01_01\IGPMCad.pas' {FmIGPMCad},
  SelfGer2 in '..\..\..\..\..\MDL\FIN\v01_01\Lcts\Gerencia\SelfGer2.pas' {FmSelfGer2},
  FluxoCxa in '..\..\..\..\..\MDL\FIN\v01_01\Relatorios\FluxoCxa.pas' {FmFluxoCxa},
  EntiImporCfg in '..\..\..\..\..\MDL\ENT\v02_01\EntiImporCfg.pas' {FmEntiImporCfg},
  FilialUsrs in '..\..\..\..\..\MDL\EMP\v01_01\FilialUsrs.pas' {FmFilialUsrs},
  ObtemFoto4 in '..\..\..\..\..\UTL\Imagem\v01_01\Camera\ObtemFoto4.pas' {FmObtemFoto4},
  VSample in '..\..\..\..\..\UTL\Imagem\v01_01\Camera\Common\VSample.pas',
  SelStr in '..\..\..\..\..\UTL\_FRM\v01_01\SelStr.pas' {FmSelStr},
  OrderFieldsImp in '..\..\..\..\..\UTL\_FRM\v01_01\OrderFieldsImp.pas' {FmOrderFieldsImp},
  Mail_Tabs in '..\..\..\..\..\MDL\MAIL\v01_01\Mail_Tabs.pas',
  UnMail in '..\..\..\..\..\MDL\MAIL\v01_01\Units\VCL\UnMail.pas',
  UnTreeView in '..\..\..\..\..\UTL\TreeView\v01_01\UnTreeView.pas',
  CNAB_CfOR in '..\..\..\..\..\MDL\CNAB\v01_01\CNAB_CfOR.pas' {FmCNAB_CfOR},
  GraGruXEAN in '..\..\..\..\..\MDL\GRAD\v01_01\GraGruXEAN.pas' {FmGraGruXEAN},
  UnPerfJan_Tabs in '..\..\..\..\..\..\MultiOS\AllOS\Listas\UnPerfJan_Tabs.pas',
  ABOUT in '..\..\..\..\..\UTL\_FRM\v01_01\ABOUT.pas' {FmAbout},
  ReceDesp2 in '..\..\..\..\..\MDL\FIN\v01_01\Relatorios\ReceDesp2.pas' {FmReceDesp2},
  FluxCxaDia2 in '..\..\..\..\..\MDL\FIN\v01_01\Relatorios\FluxCxaDia2.pas' {FmFluxCxaDia2},
  Extratos2 in '..\..\..\..\..\MDL\FIN\v01_01\Relatorios\Extratos2.pas' {FmExtratos2},
  CentroCust2 in '..\..\..\..\..\MDL\FIN\v01_01\Forms\CentroCust2.pas' {FmCentroCust2},
  AtivaCod in '..\..\..\..\..\UTL\_FRM\v01_01\AtivaCod.pas' {FmAtivaCod},
  UnFinanceiroJan in '..\..\..\..\..\MDL\FIN\v01_01\Units\UnFinanceiroJan.pas',
  RelChAbertos in '..\..\..\..\..\MDL\FIN\v01_01\Relatorios\RelChAbertos.pas' {FmRelChAbertos},
  ContasAgr in '..\..\..\..\..\MDL\FIN\v01_01\Planos\ContasAgr.pas' {FmContasAgr},
  PlanRelCab in '..\..\..\..\..\MDL\FIN\v01_01\Planos\PlanRelCab.pas' {FmPlanRelCab},
  APagRec in '..\..\..\..\..\MDL\FIN\v01_01\Relatorios\APagRec.pas' {FmAPagRec},
  _Empresas in '..\..\..\..\..\UTL\_FRM\v01_01\DockForms\_Empresas.pas' {Fm_Empresas},
  MovFin in '..\..\..\..\..\MDL\FIN\v01_01\Relatorios\MovFin.pas' {FmMovFin},
  _Indi_Pags in '..\..\..\..\..\UTL\_FRM\v01_01\DockForms\_Indi_Pags.pas' {Fm_Indi_Pags},
  _Pla_ctas in '..\..\..\..\..\UTL\_FRM\v01_01\DockForms\_Pla_ctas.pas' {Fm_Pla_Ctas},
  CtaCfgCab in '..\..\..\..\..\MDL\FIN\v01_01\Planos\CtaCfgCab.pas' {FmCtaCfgCab},
  CtaCfgIts in '..\..\..\..\..\MDL\FIN\v01_01\Planos\CtaCfgIts.pas' {FmCtaCfgIts},
  Pesquisas2 in '..\..\..\..\..\MDL\FIN\v01_01\Relatorios\Pesquisas2.pas' {FmPesquisas2},
  NFaEditCSOSN202 in '..\..\..\..\..\MDL\NFe\Fatura\NFaEditCSOSN202.pas' {FmNFaEditCSOSN202},
  NFaEditCSOSN500 in '..\..\..\..\..\MDL\NFe\Fatura\NFaEditCSOSN500.pas' {FmNFaEditCSOSN500},
  MudaTexto in '..\..\..\..\..\UTL\_FRM\v01_01\MudaTexto.pas' {FmMudaTexto},
  BloArrItsRnw in '..\..\..\..\..\MDL\BLQ\v02_02_BETA\Empresas\BloArrItsRnw.pas' {FmBloArrItsRnw},
  NFSeMenRnw in '..\..\..\..\..\MDL\NFSe\Geral\NFSeMenRnw.pas' {FmNFSeMenRnw},
  UnDmkImg in '..\..\..\..\..\UTL\Imagem\v01_01\UnDmkImg.pas',
  UnCreateProtoco in '..\..\..\..\..\MDL\PTK\v02_01_Beta\UnCreateProtoco.pas',
  UnMailAllOS in '..\..\..\..\..\MDL\MAIL\v01_01\Units\AllOS\UnMailAllOS.pas',
  UnWAceites in '..\..\..\..\..\MDL\TEXT\v01_01\Geral\UnWAceites.pas',
  WAceite in '..\..\..\..\..\MDL\TEXT\v01_01\Geral\WAceite.pas' {FmWAceite},
  UnContratUnit in '..\..\..\..\..\MDL\CNTR\v01_01\UnContratUnit.pas',
  ContratPsq1 in '..\..\..\..\..\MDL\CNTR\v01_01\ContratPsq1.pas' {FmContratPsq1},
  ContratRnw in '..\..\..\..\..\MDL\CNTR\v01_01\ContratRnw.pas' {FmContratRnw},
  UnEntities in '..\..\..\..\..\MDL\ENT\v02_01\UnEntities.pas',
  CartNiv2 in '..\..\..\..\..\MDL\FIN\v01_01\Forms\CartNiv2.pas' {FmCartNiv2},
  IBPTaxCad in '..\..\..\..\..\UTL\Tabelas\v01_01\IBPTaxCad.pas' {FmIBPTaxCad},
  IBPTaxLoad in '..\..\..\..\..\UTL\Tabelas\v01_01\IBPTaxLoad.pas' {FmIBPTaxLoad},
  NFe_PF in '..\..\..\..\..\MDL\NFe\Geral\NFe_PF.pas',
  NFeGeraXML_0310 in '..\..\..\..\..\MDL\NFe\v_03_10\Geral\NFeGeraXML_0310.pas' {FmNFeGeraXML_0310},
  consStatServ_v310 in '..\..\..\..\..\MDL\NFe\v_03_10\XSD\consStatServ_v310.pas',
  consSitNFe_v310 in '..\..\..\..\..\MDL\NFe\v_03_10\XSD\consSitNFe_v310.pas',
  inutNFe_v310 in '..\..\..\..\..\MDL\NFe\v_03_10\XSD\inutNFe_v310.pas',
  nfe_v310 in '..\..\..\..\..\MDL\NFe\v_03_10\XSD\PL_008h\nfe_v310.pas',
  distDFeInt_v100 in '..\..\..\..\..\MDL\NFe\DFe\v_01_00\distDFeInt_v100.pas',
  NFeSteps_0310 in '..\..\..\..\..\MDL\NFe\v_03_10\Geral\NFeSteps_0310.pas' {FmNFeSteps_0310},
  NFeImporta_0310 in '..\..\..\..\..\MDL\NFe\Geral\NFeImporta_0310.pas',
  FatPedNFs_0200 in '..\..\..\..\..\MDL\NFe\Geral\FatPedNFs_0200.pas' {FmFatPedNFs_0200},
  NFaEdit_0200 in '..\..\..\..\..\MDL\NFe\v_02_00\Geral\NFaEdit_0200.pas' {FmNFaEdit_0200},
  NFeItsM_0310 in '..\..\..\..\..\MDL\NFe\v_03_10\Geral\NFeItsM_0310.pas' {FmNFeItsM_0310},
  NFeValidaXML_0001 in '..\..\..\..\..\MDL\NFe\Auxiliares\NFeValidaXML_0001.pas' {FmNFeValidaXML_0001},
  NFeCabGA in '..\..\..\..\..\MDL\NFe\Geral\NFeCabGA.pas' {FmNFeCabGA},
  NFeNewVer in '..\..\..\..\..\MDL\NFe\Geral\NFeNewVer.pas' {FmNFeNewVer},
  NFeLoad_Inn in '..\..\..\..\..\UTL\XML\v01_01\Load NFe\NFeLoad_Inn.pas' {FmNFeLoad_Inn},
  NFeLoad_Arq in '..\..\..\..\..\UTL\XML\v01_01\Load NFe\NFeLoad_Arq.pas' {FmNFeLoad_Arq},
  NFeLoad_E01 in '..\..\..\..\..\UTL\XML\v01_01\Load NFe\NFeLoad_E01.pas' {FmNFeLoad_E01},
  NFeLoad_Web in '..\..\..\..\..\UTL\WEB\HTML\v01_01\LoadNFe\NFeLoad_Web.pas' {FmNFeLoad_Web},
  NFeLoad_Dir in '..\..\..\..\..\UTL\XML\v01_01\Load NFe\NFeLoad_Dir.pas' {FmNFeLoad_Dir},
  NFeWebServices_0310 in '..\..\..\..\..\MDL\NFe\v_03_10\Geral\NFeWebServices_0310.pas' {FmNFeWebServices_0310},
  NFeLayout_0200 in '..\..\..\..\..\MDL\NFe\Outros\NFeLayout_0200.pas' {FmNFeLayout_0200},
  NFeLayout_Edit in '..\..\..\..\..\MDL\NFe\Outros\NFeLayout_Edit.pas' {FmNFeLayout_Edit},
  NFeLEnC_0310 in '..\..\..\..\..\MDL\NFe\v_03_10\Servicos\NFeLEnC_0310.pas' {FmNFeLEnC_0310},
  NFeLEnI_0310 in '..\..\..\..\..\MDL\NFe\v_03_10\Servicos\NFeLEnI_0310.pas' {FmNFeLEnI_0310},
  NFeLEnU_0310 in '..\..\..\..\..\MDL\NFe\v_03_10\Servicos\NFeLEnU_0310.pas' {FmNFeLEnU_0310},
  FatPedNFs_0310 in '..\..\..\..\..\MDL\NFe\v_03_10\Emissao\FatPedNFs_0310.pas' {FmFatPedNFs_0310},
  NFaEdit_0310 in '..\..\..\..\..\MDL\NFe\v_03_10\Geral\NFaEdit_0310.pas' {FmNFaEdit_0310},
  NFeDistDFeInt_0100 in '..\..\..\..\..\MDL\NFe\DFe\v_01_00\NFeDistDFeInt_0100.pas' {FmNFeDistDFeInt_0100},
  NFeCnfDowC_0100 in '..\..\..\..\..\MDL\NFe\v_02_00\Servicos\NFeCnfDowC_0100.pas' {FmNFeCnfDowC_0100},
  NFeCnfDowI_0100 in '..\..\..\..\..\MDL\NFe\v_02_00\Servicos\NFeCnfDowI_0100.pas' {FmNFeCnfDowI_0100},
  NFeItsIDI_0310 in '..\..\..\..\..\MDL\NFe\v_03_10\Geral\NFeItsIDI_0310.pas' {FmNFeItsIDI_0310},
  NFeItsIDIa_0310 in '..\..\..\..\..\MDL\NFe\v_03_10\Geral\NFeItsIDIa_0310.pas' {FmNFeItsIDIa_0310},
  NFeConsulta_0310 in '..\..\..\..\..\MDL\NFe\v_03_10\Servicos\NFeConsulta_0310.pas' {FmNFeConsulta_0310},
  NFeLeXML_0310 in '..\..\..\..\..\MDL\NFe\v_03_10\Geral\NFeLeXML_0310.pas',
  NFeItsI03_0310 in '..\..\..\..\..\MDL\NFe\v_03_10\Geral\NFeItsI03_0310.pas' {FmNFeItsI03_0310},
  EntradaCab in '..\..\..\..\..\MDL\NFe\Entradas\EntradaCab.pas' {FmEntradaCab},
  EntradaIts in '..\..\..\..\..\MDL\NFe\Entradas\EntradaIts.pas' {FmEntradaIts},
  EntradaPesq in '..\..\..\..\..\MDL\NFe\Entradas\EntradaPesq.pas' {FmEntradaPesq},
  SMI_Edita in '..\..\..\..\..\MDL\GRAD\v01_01\SMI_Edita.pas' {FmSMI_Edita},
  UnGrade_Jan in '..\..\..\..\..\MDL\GRAD\v01_01\UnGrade_Jan.pas',
  StqCenCab in '..\..\..\..\..\MDL\GRAD\v01_01\StqCenCab.pas' {FmStqCenCab},
  StqCenIts in '..\..\..\..\..\MDL\GRAD\v01_01\StqCenIts.pas' {FmStqCenIts},
  GraTabAppSel in '..\..\..\..\..\MDL\GRAD\v01_01\GraTabAppSel.pas' {FmGraTabAppSel},
  IBGE_LoadTabs in '..\..\..\..\..\MDL\ENT\v02_01\IBGE\IBGE_LoadTabs.pas' {FmIBGE_LoadTabs},
  UnGFat_Jan in '..\..\..\..\..\MDL\GFAT\v01_01\UnGFat_Jan.pas',
  FatPedImp2 in '..\..\..\..\..\MDL\GPED\v01_01\FatPedImp2.pas' {FmFatPedImp2},
  HorVerao in '..\..\..\..\..\UTL\_FRM\v01_01\HorVerao.pas' {FmHorVerao},
  UFs in '..\..\..\..\..\MDL\ENT\v02_01\UFs.pas' {FmUFs},
  NFeItsI_0000 in '..\..\..\..\..\MDL\NFe\NF\NFeItsI_0000.pas' {FmNFeItsI_0000},
  NFeCabA_0000 in '..\..\..\..\..\MDL\NFe\NF\NFeCabA_0000.pas' {FmNFeCabA_0000},
  NFeInut_0000 in '..\..\..\..\..\MDL\NFe\Geral\NFeInut_0000.pas' {FmNFeInut_0000},
  UnFinance_Tabs in '..\..\..\..\..\MDL\FIN\v01_01\Units\UnFinance_Tabs.pas',
  UnAnotacoes_Tabs in '..\..\..\..\..\MDL\ANOT\v01_01\UnAnotacoes_Tabs.pas',
  UnEmpg_Tabs in '..\..\..\..\..\MDL\EMPG\UnEmpg_Tabs.pas',
  UnSrvL_Tabs in '..\..\..\..\..\MDL\SrvL\UnSrvL_Tabs.pas',
  UnEnti_Tabs in '..\..\..\..\..\MDL\ENT\v02_01\UnEnti_Tabs.pas',
  UnGFat_Tabs in '..\..\..\..\..\MDL\GFAT\v01_01\UnGFat_Tabs.pas',
  UnALL_Tabs in '..\..\..\..\..\UTL\_UNT\v01_01\UnALL_Tabs.pas',
  UnMoedas_Tabs in '..\..\..\..\..\UTL\Cambio\v01_01\UnMoedas_Tabs.pas',
  UnFiscal_Tabs in '..\..\..\..\..\MDL\FISC\v01_01\UnFiscal_Tabs.pas',
  UnEmpresas_Tabs in '..\..\..\..\..\MDL\EMP\v01_01\UnEmpresas_Tabs.pas',
  BloSemLot in '..\..\..\..\..\MDL\BLQ\v02_02_BETA\Geral\BloSemLot.pas' {FmBloSemLot},
  UnDmkListas in '..\..\..\..\..\..\MultiOS\AllOS\Listas\UnDmkListas.pas',
  UnLock_Dmk in '..\..\..\..\DMK\UnLock\v01_01\UnLock_Dmk.pas' {FmUnLock_Dmk},
  UnLock_MLA in '..\..\..\..\DMK\UnLock\v01_01\UnLock_MLA.pas' {FmUnLock_MLA},
  Vcl.Themes,
  Vcl.Styles,
  UnEmpg_PF in '..\..\..\..\..\MDL\EMPG\UnEmpg_PF.pas',
  UnSrvL_PF in '..\..\..\..\..\MDL\SrvL\UnSrvL_PF.pas',
  SrvLCad in '..\..\..\..\..\MDL\SrvL\SrvLCad.pas' {FmSrvLCad},
  SrvLOSCab in '..\..\..\..\..\MDL\SrvL\SrvLOSCab.pas' {FmSrvLOSCab},
  SrvLOSEsc in '..\..\..\..\..\MDL\SrvL\SrvLOSEsc.pas' {FmSrvLOSEsc},
  AgeEqiIts in '..\..\..\..\..\MDL\EMPG\AgeEqiIts.pas' {FmAgeEqiIts},
  AgeEqiCab in '..\..\..\..\..\MDL\EMPG\AgeEqiCab.pas' {FmAgeEqiCab},
  AgeEqiCfg in '..\..\..\..\..\MDL\EMPG\AgeEqiCfg.pas' {FmAgeEqiCfg},
  FPMin_Tabs in '..\..\..\..\..\MDL\FPF\FPMin\v01_01\FPMin_Tabs.pas',
  FPFunci in '..\..\..\..\..\MDL\FPF\FPMin\v01_01\FPFunci.pas' {FmFPFunci},
  FPFunciTre in '..\..\..\..\..\MDL\FPF\FPMin\v01_01\FPFunciTre.pas' {FmFPFunciTre},
  SrvLOSOpeGrn in '..\..\..\..\..\MDL\SrvL\SrvLOSOpeGrn.pas' {FmSrvLOSOpeGrn},
  UnGrade_PF in '..\..\..\..\..\MDL\GRAD\v01_01\UnGrade_PF.pas',
  SrvLPrmNvs in '..\..\..\..\..\MDL\SrvL\SrvLPrmNvs.pas' {FmSrvLPrmNvs},
  SrvLPrmCad in '..\..\..\..\..\MDL\SrvL\SrvLPrmCad.pas' {FmSrvLPrmCad},
  SrvLOSOpeDsp in '..\..\..\..\..\MDL\SrvL\SrvLOSOpeDsp.pas' {FmSrvLOSOpeDsp},
  SrvLFatCab in '..\..\..\..\..\MDL\SrvL\SrvLFatCab.pas' {FmSrvLFatCab},
  SrvLFatOpe in '..\..\..\..\..\MDL\SrvL\SrvLFatOpe.pas' {FmSrvLFatOpe},
  SrvLHonCab in '..\..\..\..\..\MDL\SrvL\SrvLHonCab.pas' {FmSrvLHonCab},
  SrvLHonAge in '..\..\..\..\..\MDL\SrvL\SrvLHonAge.pas' {FmSrvLHonAge},
  SrvLOSPrz in '..\..\..\..\..\MDL\SrvL\SrvLOSPrz.pas' {FmSrvLOSPrz},
  SrvLFatPrz in '..\..\..\..\..\MDL\SrvL\SrvLFatPrz.pas' {FmSrvLFatPrz},
  CalculaPercentual in '..\..\..\..\..\UTL\_FRM\v01_01\CalculaPercentual.pas' {FmCalculaPercentual},
  SrvLFatEmi in '..\..\..\..\..\MDL\SrvL\SrvLFatEmi.pas' {FmSrvLFatEmi},
  SrvLHonEmi in '..\..\..\..\..\MDL\SrvL\SrvLHonEmi.pas' {FmSrvLHonEmi},
  AgeEntCad in '..\..\..\..\..\MDL\EMPG\AgeEntCad.pas' {FmAgeEntCad},
  SrvLOSOpeCPA in '..\..\..\..\..\MDL\SrvL\SrvLOSOpeCPA.pas' {FmSrvLOSOpeCPA},
  SrvLOSCabImp in '..\..\..\..\..\MDL\SrvL\SrvLOSCabImp.pas' {FmSrvLOSCabImp},
  CadAnyStatus in '..\..\..\..\..\MDL\AGEN\v01_01\CadAnyStatus.pas' {FmCadAnyStatus},
  Descanso in '..\..\..\..\..\UTL\_FRM\v01_01\Descanso.pas' {FmDescanso},
  SrvLImp in '..\..\..\..\..\MDL\SrvL\SrvLImp.pas' {FmSrvLImp},
  GraGru1Trf in '..\..\..\..\..\MDL\GRAD\v01_01\GraGru1Trf.pas' {FmGraGru1Trf},
  SrvLFatCabImp in '..\..\..\..\..\MDL\SrvL\SrvLFatCabImp.pas' {FmSrvLFatCabImp},
  UnALL_Jan in '..\..\..\..\..\UTL\_UNT\v01_01\UnALL_Jan.pas',
  UnProtocoUnit in '..\..\..\..\..\MDL\PTK\v02_01_Beta\UnProtocoUnit.pas',
  ProSel in '..\..\..\..\..\MDL\PTK\v02_01_Beta\ProSel.pas' {FmProSel},
  ProtoAddTar in '..\..\..\..\..\MDL\PTK\v02_01_Beta\ProtoAddTar.pas' {FmProtoAddTar},
  ProtoGer in '..\..\..\..\..\MDL\PTK\v02_01_Beta\ProtoGer.pas' {FmProtoGer},
  ProEnPr in '..\..\..\..\..\MDL\PTK\v02_01_Beta\ProEnPr.pas' {FmProEnPr},
  NFSeMail in '..\..\..\..\..\MDL\NFSe\Geral\NFSeMail.pas' {FmNFSeMail},
  PlanoImpExp in '..\..\..\..\..\MDL\FIN\v01_01\Planos\PlanoImpExp.pas' {FmPlanoImpExp},
  UnPagtos in '..\..\..\..\..\MDL\FIN\v01_01\Units\UnPagtos.pas',
  StqInnPesq in '..\..\..\..\..\MDL\GRAD\v01_01\StqInnPesq.pas' {FmStqInnPesq},
  MyPagtos in '..\..\..\..\..\MDL\FIN\v01_01\Forms\MyPagtos.pas' {FmMyPagtos},
  UnBloqGerl in '..\..\..\..\..\MDL\BLQ\v02_02_BETA\Geral\UnBloqGerl.pas',
  UnXXe_PF in '..\..\..\..\..\MDL\XXe\UnXXe_PF.pas',
  UnNFeListas in '..\..\..\..\..\MDL\NFe\Geral\UnNFeListas.pas',
  UnPraz_PF in '..\..\..\..\..\MDL\Praz\v01_01\UnPraz_PF.pas',
  NFe_Pesq_0000_ImpLista in '..\..\..\..\..\MDL\NFe\Geral\NFe_Pesq_0000_ImpLista.pas' {FmNFe_Pesq_0000_ImpLista},
  NFeCabXReb_0000 in '..\..\..\..\..\MDL\NFe\NF\NFeCabXReb_0000.pas' {FmNFeCabXReb_0000},
  NFeCabXVol_0000 in '..\..\..\..\..\MDL\NFe\NF\NFeCabXVol_0000.pas' {FmNFeCabXVol_0000},
  NFeCabXLac_0000 in '..\..\..\..\..\MDL\NFe\NF\NFeCabXLac_0000.pas' {FmNFeCabXLac_0000},
  NFeCabZCon_0000 in '..\..\..\..\..\MDL\NFe\NF\NFeCabZCon_0000.pas' {FmNFeCabZCon_0000},
  NFeCabZFis_0000 in '..\..\..\..\..\MDL\NFe\NF\NFeCabZFis_0000.pas' {FmNFeCabZFis_0000},
  NFeCabZPro_0000 in '..\..\..\..\..\MDL\NFe\NF\NFeCabZPro_0000.pas' {FmNFeCabZPro_0000},
  UnBloqGerl_Jan in '..\..\..\..\..\MDL\BLQ\v02_02_BETA\Geral\UnBloqGerl_Jan.pas',
  BloImp in '..\..\..\..\..\MDL\BLQ\v02_02_BETA\Empresas\BloImp.pas' {FmBloImp},
  ModBloqGerl in '..\..\..\..\..\MDL\BLQ\v02_02_BETA\Geral\ModBloqGerl.pas' {DBloqGerl: TDataModule},
  LctDelLanctoz in '..\..\..\..\..\MDL\FIN\v01_01\Forms\LctDelLanctoz.pas' {FmLctDelLanctoz},
  FinanceiroImp in '..\..\..\..\..\MDL\FIN\v01_01\Relatorios\FinanceiroImp.pas' {FmFinanceiroImp},
  ProEnPrGer in '..\..\..\..\..\MDL\PTK\v02_01_Beta\ProEnPrGer.pas' {FmProEnPrGer},
  UnImprime_Tabs in '..\..\..\..\..\MDL\PRIN\v01_01\UnImprime_Tabs.pas',
  CondGerArreFutA in '..\..\..\..\..\MDL\BLQ\v02_02_BETA\Geral\CondGerArreFutA.pas' {FmCondGerArreFutA},
  CondGerArreFut in '..\..\..\..\..\MDL\BLQ\v02_02_BETA\Geral\CondGerArreFut.pas' {FmCondGerArreFut},
  SPED_Listas in '..\..\..\..\..\MDL\SPED\v00_01\SPED_Listas.pas',
  UnUMedi_Tabs in '..\..\..\..\..\MDL\UMed\v01_01\UnUMedi_Tabs.pas',
  UnGrl_Consts in '..\..\..\..\..\..\MultiOS\UTL\_UNT\v01_01\UnGrl_Consts.pas',
  UMySQLDB in '..\..\..\..\..\UTL\MySQL\v01_01\UMySQLDB.pas',
  UnPraz_Tabs in '..\..\..\..\..\MDL\Praz\v01_01\UnPraz_Tabs.pas',
  FaturCfg in '..\..\..\..\..\MDL\BLQ\v02_02_BETA\Geral\FaturCfg.pas' {FmFaturCfg},
  FatGruFisRegCad in '..\..\..\..\..\MDL\GFAT\v01_01\FatGruFisRegCad.pas' {FmFatGruFisRegCad},
  GraGru1Cons in '..\..\..\..\..\MDL\GRAD\v01_01\GraGru1Cons.pas' {FmGraGru1Cons},
  NFeCabYAll_0000 in '..\..\..\..\..\MDL\NFe\NF\NFeCabYAll_0000.pas' {FmNFeCabYAll_0000},
  UnDmkHTML2 in '..\..\..\..\..\UTL\WEB\HTML\v01_01\UnDmkHTML2.pas',
  UnitDmkTags in '..\..\..\..\..\UTL\_UNT\v01_01\UnitDmkTags.pas',
  TextosHTML in '..\..\..\..\..\UTL\Textos\v01_01\TextosHTML.pas' {FmTextosHTML},
  TextosHTMLTab in '..\..\..\..\..\UTL\Textos\v01_01\TextosHTMLTab.pas' {FmTextosHTMLTab},
  UnTextos_Jan in '..\..\..\..\..\MDL\TEXT\v01_01\UnTextos_Jan.pas',
  CtrStatus in '..\..\..\..\..\MDL\CNTR\v01_01\CtrStatus.pas' {FmCtrStatus},
  UnUMedi_PF in '..\..\..\..\..\MDL\UMed\v01_01\UnUMedi_PF.pas',
  UnidMedMul in '..\..\..\..\..\MDL\UMed\v01_01\UnidMedMul.pas' {FmUnidMedMul},
  GraGruValDta in '..\..\..\..\..\MDL\GRAD\v01_01\GraGruValDta.pas' {FmGraGruValDta},
  GraGruXEdit in '..\..\..\..\..\MDL\GRAD\v01_01\GraGruXEdit.pas' {FmGraGruXEdit},
  UnBloqGerl_Tabs in '..\..\..\..\..\MDL\BLQ\v02_02_BETA\Geral\UnBloqGerl_Tabs.pas',
  Enti9Digit in '..\..\..\..\..\MDL\ENT\v02_01\Enti9Digit.pas' {FmEnti9Digit},
  FixBugs in '..\..\..\..\..\UTL\FixBugs\v01_01\FixBugs.pas' {FmFixBugs},
  UnFixBugs in '..\..\..\..\..\UTL\FixBugs\v01_01\UnFixBugs.pas',
  MyTreeViewReorder in '..\..\..\..\..\UTL\TreeView\v01_01\MyTreeViewReorder.pas' {FmMyTreeViewReorder},
  GraGru2 in '..\..\..\..\..\MDL\GRAD\v01_01\GraGru2.pas' {FmGraGru2},
  GraGruNiveis2 in '..\..\..\..\..\MDL\GRAD\v01_01\GraGruNiveis2.pas' {FmGraGruNiveis2},
  NFeXMLData in '..\..\..\..\..\MDL\NFe\Geral\NFeXMLData.pas' {FmNFeXMLData},
  NFeEFD_C170 in '..\..\..\..\..\MDL\NFe\EFD\NFeEFD_C170.pas' {FmNFeEFD_C170},
  GerlShowGrid in '..\..\..\..\..\UTL\_FRM\v01_01\GerlShowGrid.pas' {FmGerlShowGrid},
  EntiAssina in '..\..\..\..\..\MDL\ENT\v02_01\EntiAssina.pas' {FmEntiAssina},
  CFOPCFOP in '..\..\..\..\..\UTL\Tabelas\v01_01\Fiscal\CFOPCFOP.pas' {FmCFOPCFOP},
  UnFiscal_PF in '..\..\..\..\..\MDL\FISC\v01_01\UnFiscal_PF.pas',
  GraGruEGerCab in '..\..\..\..\..\MDL\GRAD\v01_01\GraGruEGerCab.pas' {FmGraGruEGerCab},
  NFe_Pesq_0000_ImpFat in '..\..\..\..\..\MDL\NFe\Geral\NFe_Pesq_0000_ImpFat.pas' {FmNFe_Pesq_0000_ImpFat},
  UnSPED_Geral in '..\..\..\..\..\MDL\SPED\v00_01\UnSPED_Geral.pas',
  NFeEFD_C170_Cab in '..\..\..\..\..\MDL\NFe\Geral\NFeEFD_C170_Cab.pas' {FmNFeEFD_C170_Cab},
  GraGruEIts in '..\..\..\..\..\MDL\GRAD\v01_01\GraGruEIts.pas' {FmGraGruEIts},
  GraGruECad in '..\..\..\..\..\MDL\GRAD\v01_01\GraGruECad.pas' {FmGraGruECad},
  LogOff in '..\..\..\..\..\UTL\_FRM\v01_01\LogOff.pas' {FmLogOff},
  Entidade3 in '..\..\..\..\..\MDL\ENT\v03_01\Entidade3.pas' {FmEntidade3},
  EntiGruIts in '..\..\..\..\..\MDL\ENT\v02_01\EntiGruIts.pas' {FmEntiGruIts},
  EntiGrupos in '..\..\..\..\..\MDL\ENT\v02_01\EntiGrupos.pas' {FmEntiGrupos},
  UnGrl_Geral in '..\..\..\..\..\..\MultiOS\UTL\_UNT\v01_01\UnGrl_Geral.pas',
  UnReordena in '..\..\..\..\..\UTL\_UNT\v01_01\UnReordena.pas',
  MyDBGridReorder in '..\..\..\..\..\UTL\_FRM\v01_01\MyDBGridReorder.pas' {FmMyDBGridReorder},
  PediPrzEnt in '..\..\..\..\..\MDL\Praz\v01_01\PediPrzEnt.pas' {FmPediPrzEnt},
  NFSeParams in '..\..\..\..\..\MDL\NFSe\Geral\NFSeParams.pas' {FmNFSeParams},
  NFSe_ConfReceb in '..\..\..\..\..\MDL\NFSe\Geral\NFSe_ConfReceb.pas' {FmNFSe_ConfReceb},
  UnGrl_REST in '..\..\..\..\..\..\MultiOS\UTL\WEB\HTML\v01_01\UnGrl_REST.pas',
  OAuth in '..\..\..\..\..\UTL\WEB\HTML\v01_01\OAuth.pas' {FmOAuth},
  UnGrlUsuarios in '..\..\..\..\..\..\MultiOS\MDL\USR\v02_01\UnGrlUsuarios.pas',
  UnGrl_DmkDB in '..\..\..\..\..\..\MultiOS\UTL\_UNT\v01_01\UnGrl_DmkDB.pas',
  UnGrlEnt in '..\..\..\..\..\..\MultiOS\MDL\ENT\v02_01\UnGrlEnt.pas',
  BloConfReceb in '..\..\..\..\..\MDL\BLQ\v02_02_BETA\Geral\BloConfReceb.pas' {FmBloConfReceb},
  NfeCabYA_0000 in '..\..\..\..\..\MDL\NFe\NF\NfeCabYA_0000.pas' {FmNFeCabYA_0000},
  NFe_LocEPesq in '..\..\..\..\..\MDL\NFe\Geral\NFe_LocEPesq.pas' {FmNFe_LocEPesq},
  NFeSteps_0400 in '..\..\..\..\..\MDL\NFe\v_04_00\Geral\NFeSteps_0400.pas' {FmNFeSteps_0400},
  NFeImporta_0400 in '..\..\..\..\..\MDL\NFe\v_04_00\Geral\NFeImporta_0400.pas',
  NFeLEnC_0400 in '..\..\..\..\..\MDL\NFe\v_04_00\Servicos\NFeLEnC_0400.pas' {FmNFeLEnC_0400},
  NFeLEnI_0400 in '..\..\..\..\..\MDL\NFe\v_04_00\Servicos\NFeLEnI_0400.pas' {FmNFeLEnI_0400},
  NFeLEnU_0400 in '..\..\..\..\..\MDL\NFe\v_04_00\Servicos\NFeLEnU_0400.pas' {FmNFeLEnU_0400},
  FatPedNFs_0400 in '..\..\..\..\..\MDL\NFe\v_04_00\Emissao\FatPedNFs_0400.pas' {FmFatPedNFs_0400},
  NFaEdit_0400 in '..\..\..\..\..\MDL\NFe\v_04_00\Geral\NFaEdit_0400.pas' {FmNFaEdit_0400},
  NFeGeraXML_0400 in '..\..\..\..\..\MDL\NFe\v_04_00\Geral\NFeGeraXML_0400.pas' {FmNFeGeraXML_0400},
  nfe_v400 in '..\..\..\..\..\MDL\NFe\v_04_00\XSD\nfe_v400.pas',
  consReciNFe_v400 in '..\..\..\..\..\MDL\NFe\v_04_00\XSD\consReciNFe_v400.pas',
  consStatServ_v400 in '..\..\..\..\..\MDL\NFe\v_04_00\XSD\consStatServ_v400.pas',
  inutNFe_v400 in '..\..\..\..\..\MDL\NFe\v_04_00\XSD\inutNFe_v400.pas',
  consSitNFe_v400 in '..\..\..\..\..\MDL\NFe\v_04_00\XSD\consSitNFe_v400.pas',
  NFeItsIDI_0400 in '..\..\..\..\..\MDL\NFe\v_04_00\Geral\NFeItsIDI_0400.pas' {FmNFeItsIDI_0400},
  NFeItsIDIa_0400 in '..\..\..\..\..\MDL\NFe\v_04_00\Geral\NFeItsIDIa_0400.pas' {FmNFeItsIDIa_0400},
  NFeConsulta_0400 in '..\..\..\..\..\MDL\NFe\v_04_00\Servicos\NFeConsulta_0400.pas' {FmNFeConsulta_0400},
  NFeLeXML_0400 in '..\..\..\..\..\MDL\NFe\v_04_00\Geral\NFeLeXML_0400.pas',
  NFeItsI03_0400 in '..\..\..\..\..\MDL\NFe\v_04_00\Geral\NFeItsI03_0400.pas' {FmNFeItsI03_0400},
  UnAppEnums in '..\Units\UnAppEnums.pas',
  GraGru1CorTam in '..\..\..\..\..\MDL\GRAD\v01_01\GraGru1CorTam.pas' {FmGraGru1CorTam},
  FatPedVol1 in '..\..\..\..\..\MDL\GFAT\v01_01\FatPedVol1.pas' {FmFatPedVol1},
  FatDivGer1 in '..\..\..\..\..\MDL\GFAT\v01_01\FatDivGer1.pas' {FmFatDivGer1},
  FatDivGru1 in '..\..\..\..\..\MDL\GFAT\v01_01\FatDivGru1.pas' {FmFatDivGru1},
  FatDivRef1 in '..\..\..\..\..\MDL\GFAT\v01_01\FatDivRef1.pas' {FmFatDivRef1},
  FatPedVol2 in '..\..\..\..\..\MDL\GFAT\v01_01\FatPedVol2.pas' {FmFatPedVol2},
  FatDivGer2 in '..\..\..\..\..\MDL\GFAT\v01_01\FatDivGer2.pas' {FmFatDivGer2},
  FatDivGru2 in '..\..\..\..\..\MDL\GFAT\v01_01\FatDivGru2.pas' {FmFatDivGru2},
  FatDivRef2 in '..\..\..\..\..\MDL\GFAT\v01_01\FatDivRef2.pas' {FmFatDivRef2},
  FatDivCab1 in '..\..\..\..\..\MDL\GFAT\v01_01\FatDivCab1.pas' {FmFatDivCab1},
  FatDivCab2 in '..\..\..\..\..\MDL\GFAT\v01_01\FatDivCab2.pas' {FmFatDivCab2},
  PediVda1 in '..\..\..\..\..\MDL\GPED\v01_01\PediVda1.pas' {FmPediVda1},
  Motivos in '..\..\..\..\..\MDL\GPED\v01_01\Motivos.pas' {FmMotivos},
  PediAcc in '..\..\..\..\..\MDL\GPED\v01_01\PediAcc.pas' {FmPediAcc},
  PediAccAti in '..\..\..\..\..\MDL\GPED\v01_01\PediAccAti.pas' {FmPediAccAti},
  PediVdaGru1 in '..\..\..\..\..\MDL\GPED\v01_01\PediVdaGru1.pas' {FmPediVdaGru1},
  PediVdaImp in '..\..\..\..\..\MDL\GPED\v01_01\PediVdaImp.pas' {FmPediVdaImp},
  PediVdaImpCli in '..\..\..\..\..\MDL\GPED\v01_01\PediVdaImpCli.pas' {FmPediVdaImpCli},
  PediVdaImpPrd in '..\..\..\..\..\MDL\GPED\v01_01\PediVdaImpPrd.pas' {FmPediVdaImpPrd},
  PediVdaImpEmp in '..\..\..\..\..\MDL\GPED\v01_01\PediVdaImpEmp.pas' {FmPediVdaImpEmp},
  PediVdaImpRep in '..\..\..\..\..\MDL\GPED\v01_01\PediVdaImpRep.pas' {FmPediVdaImpRep},
  PediVdaImpAtrPrd in '..\..\..\..\..\MDL\GPED\v01_01\PediVdaImpAtrPrd.pas' {FmPediVdaImpAtrPrd},
  PediVdaAlt1 in '..\..\..\..\..\MDL\GPED\v01_01\PediVdaAlt1.pas' {FmPediVdaAlt1},
  PediVdaLei1 in '..\..\..\..\..\MDL\GPED\v01_01\PediVdaLei1.pas' {FmPediVdaLei1},
  FatPedCab1 in '..\..\..\..\..\MDL\GFAT\v01_01\FatPedCab1.pas' {FmFatPedCab1},
  PediVdaCuzIns1 in '..\..\..\..\..\MDL\GPED\v01_01\PediVdaCuzIns1.pas' {FmPediVdaCuzIns1},
  PediVdaCuzUpd1 in '..\..\..\..\..\MDL\GPED\v01_01\PediVdaCuzUpd1.pas' {FmPediVdaCuzUpd1},
  PediVdaCuzParIns1 in '..\..\..\..\..\MDL\GPED\v01_01\PediVdaCuzParIns1.pas' {FmPediVdaCuzParIns1},
  PediVda2 in '..\..\..\..\..\MDL\GPED\v01_01\PediVda2.pas' {FmPediVda2},
  PediVdaGru2 in '..\..\..\..\..\MDL\GPED\v01_01\PediVdaGru2.pas' {FmPediVdaGru2},
  PediVdaAlt2 in '..\..\..\..\..\MDL\GPED\v01_01\PediVdaAlt2.pas' {FmPediVdaAlt2},
  PediVdaLei2 in '..\..\..\..\..\MDL\GPED\v01_01\PediVdaLei2.pas' {FmPediVdaLei2},
  FatPedCab2 in '..\..\..\..\..\MDL\GFAT\v01_01\FatPedCab2.pas' {FmFatPedCab2},
  FatPedIts2 in '..\..\..\..\..\MDL\GPED\v01_01\FatPedIts2.pas' {FmFatPedIts2},
  PediVdaCuzIns2 in '..\..\..\..\..\MDL\GPED\v01_01\PediVdaCuzIns2.pas' {FmPediVdaCuzIns2},
  PediVdaCuzUpd2 in '..\..\..\..\..\MDL\GPED\v01_01\PediVdaCuzUpd2.pas' {FmPediVdaCuzUpd2},
  PediVdaCuzParIns2 in '..\..\..\..\..\MDL\GPED\v01_01\PediVdaCuzParIns2.pas' {FmPediVdaCuzParIns2},
  PediVdaImp2 in '..\..\..\..\..\MDL\GPED\v01_01\PediVdaImp2.pas' {FmPediVdaImp2},
  PediVdaImpCli2 in '..\..\..\..\..\MDL\GPED\v01_01\PediVdaImpCli2.pas' {FmPediVdaImpCli2},
  PediVdaImpPrd2 in '..\..\..\..\..\MDL\GPED\v01_01\PediVdaImpPrd2.pas' {FmPediVdaImpPrd2},
  PediVdaImpEmp2 in '..\..\..\..\..\MDL\GPED\v01_01\PediVdaImpEmp2.pas' {FmPediVdaImpEmp2},
  PediVdaImpRep2 in '..\..\..\..\..\MDL\GPED\v01_01\PediVdaImpRep2.pas' {FmPediVdaImpRep2},
  PediVdaImpAtrPrd2 in '..\..\..\..\..\MDL\GPED\v01_01\PediVdaImpAtrPrd2.pas' {FmPediVdaImpAtrPrd2},
  GraGruY in '..\..\..\..\..\MDL\GRAD\v01_01\GraGruY.pas' {FmGraGruY},
  GraGruYIncorpora in '..\..\..\..\..\MDL\VS\v01_01\Forms\GraGruYIncorpora.pas' {FmGraGruYIncorpora},
  GraGruAtiCorTam in '..\..\..\..\..\MDL\GRAD\v01_01\GraGruAtiCorTam.pas' {FmGraGruAtiCorTam},
  NCMsMul in '..\..\..\..\..\MDL\GRAD\v01_01\NCMsMul.pas' {FmNCMsMul},
  GraGruXSelToY in '..\..\..\..\..\MDL\GRAD\v01_01\GraGruXSelToY.pas' {FmGraGruXSelToY},
  SPED_EFD_Tabs in '..\..\..\..\..\MDL\NFe\SPED_EFD_Tabs.pas',
  AppListas in '..\Units\AppListas.pas',
  ConsultaCEP in '..\..\..\..\..\UTL\CEP\delphi-consulta-cep-master\ConsultaCEP.pas',
  CadListaOrdem in '..\..\..\..\..\UTL\MySQL\v01_01\CadListaOrdem.pas' {FmCadListaOrdem},
  UnGrlTemp in '..\..\..\..\..\..\MultiOS\UTL\_UNT\v01_01\UnGrlTemp.pas',
  ReceDespFree2 in '..\..\..\..\..\MDL\FIN\v01_01\Relatorios\ReceDespFree2.pas' {FmReceDespFree2},
  UnProjGroup_Consts in '..\..\..\..\..\..\MultiOS\Aplicativos\Toolrent\UnProjGroup_Consts.pas',
  UnProjGroup_Vars in '..\..\..\..\..\..\MultiOS\Aplicativos\Toolrent\UnProjGroup_Vars.pas',
  NFeItsLA_0000 in '..\..\..\..\..\MDL\NFe\v_03_10\Geral\NFeItsLA_0000.pas' {FmNFeItsLA_0000},
  UnAgenda_Tabs in '..\..\..\..\..\MDL\AGEN\v01_01\UnAgenda_Tabs.pas',
  GraSrvVal in '..\..\..\..\..\MDL\GRAD\v01_01\GraSrvVal.pas' {FmGraSrvVal},
  GraSrvValIts in '..\..\..\..\..\MDL\GRAD\v01_01\GraSrvValIts.pas' {FmGraSrvValIts},
  VFrames in '..\..\..\..\..\UTL\Imagem\v01_01\Camera\Common\VFrames.pas',
  UnProjGroup_PF in '..\Units\UnProjGroup_PF.pas',
  UnEfdIcmsIpi_PF in '..\..\..\..\..\MDL\SPED\UnEfdIcmsIpi_PF.pas',
  UnEfdIcmsIpi_PF_v03_0_1 in '..\..\..\..\..\MDL\SPED\v03_0_1\UnEfdIcmsIpi_PF_v03_0_1.pas',
  UnEfdIcmsIpi_PF_v03_0_2_a in '..\..\..\..\..\MDL\SPED\v03_0_2_a\UnEfdIcmsIpi_PF_v03_0_2_a.pas';

{$R *.RES}

const
  NomeForm = 'FmToolRent_MLA';
var
  Form : PChar;
begin
  Form := PChar(NomeForm);
  CreateMutex(nil, False, Form);
  Application.Initialize;
  // ivMsgVersaoDifere
  if CO_VERMCW > CO_VERMLA then
    CO_VERSAO := CO_VERMCW
  else
    CO_VERSAO := CO_VERMLA;
  //
  TStyleManager.TrySetStyle('Luna');
  Application.Title := 'ToolRent';
  try
    Application.CreateForm(TFmPrincipal, FmPrincipal);
  Application.CreateForm(TFmMyGlyfs, FmMyGlyfs);
  Application.CreateForm(TFmMeuDBUses, FmMeuDBUses);
  Application.CreateForm(TFmLinkRankSkin, FmLinkRankSkin);
  Application.CreateForm(TDmNFe_0000, DmNFe_0000);
  Application.CreateForm(TDmNFSe_0000, DmNFSe_0000);
  Application.CreateForm(TGMod, GMod);
  Application.CreateForm(TDmBco, DmBco);
  Application.CreateForm(TDfModAppGraG1, DfModAppGraG1);
  Application.CreateForm(TDmLct2, DmLct2);
  Application.CreateForm(TDBloGeren, DBloGeren);
  Application.CreateForm(TDBloqGerl, DBloqGerl);
  Application.CreateForm(TDmProd, DmProd);
  Application.CreateForm(TDmFatura, DmFatura);
  //Application.CreateForm(TDmModAgenda, DmModAgenda);
  Application.CreateForm(TFmToolrent_Dmk, FmToolrent_Dmk);
  except
    Application.Terminate;
    Exit;
  end;
  Application.Run;
end.

