GridResult|||||||||||||||||||||||||||
Codigo|Registro|SubReg|Segmento|SubSeg|PosIni|PosFim|PosTam|Campo|Restricao|TamInt|TamFlu|FmtDta|Preenchmto|CodSis|DefaultRem|DefaultRet|Obrigatori|CliPreench|Descri01|Descri02|Descri03|Descri04|Descri05|Opcoes01|FulSize|InvertAli
-999999999|0|0||0|1|1|1|COD.REGISTRO|9|1|0||2|1|0|0|0|0|IDENTIFICAÇÃODOREGISTRODEARQUIVO||||||0|0
-999999999|0|0||0|2|2|1|IDENT.ARQUIVO|9|1|0||2|2|1|2|1|0|CÓDIGODEIDENTIFICAÇÃODOMOVIMENTO||||||0|0
-999999999|0|0||0|3|9|7|IDENT.ARQUIVO|X|7|0||2|3|REMESSA|RETORNO|1|0|IDENTIFICAÇÃODOMOVIMENTOP/EXTENSO||||||0|0
-999999999|0|0||0|10|11|2|BRANCOS|X|2|0||3|999|||0|0|BRANCOS||||||0|0
-999999999|0|0||0|12|18|7|LITERALDOSERVIÇO|X|7|0||2|5|CHEQUES|CHEQUES|1|0|IDENTIFICAÇÃODOSERVIÇO||||||0|0
-999999999|0|0||0|19|19|1|BRANCO|X|1|0||3|999|||0|0|BRANCO||||||0|0
-999999999|0|0||0|20|22|3|COD.DOPRODUTO|9|3|0||2|4|900|900|1|0|CÓDIGODOPRODUTO||||||0|0
-999999999|0|0||0|23|36|14|COD.EMPRESA|9|14|0||2|6|||1|1|IDENTIFICAÇÃODAEMPRESANOBANCO|CódigodoCedente:|5dígitosdaagência|9dígitosdacontacorrente|||1|0
-999999999|0|0||0|37|39|3|COD.FILIAL|9|3|0||2|7|000|000|0|0|CODIGOFILIALDAEMPRESA||||||0|0
-999999999|0|0||0|40|40|1|TIPODEINSCRIÇÃO|9|1|0||4|8|||1|0|TIPODEINSCRIÇÃODAEMPRESA|||||1,CPF;2,CNPJ|0|0
-999999999|0|0||0|41|54|14|NUM.INSCRIÇÃO|9|14|0||2|9|||1|0|NÚMERODEINSCRIÇÃODAEMPRESA||||||0|0
-999999999|0|0||0|55|94|40|NOMEEMPRESA|X|40|0||2|10|||1|0|NOMEDAEMPRESACEDENTE||||||0|0
-999999999|0|0||0|95|97|3|COD.BANCO|9|3|0||2|11|422|422|1|0|CÓDIGODEIDENTIFICAÇÃODOBANCONACOMPENSAÇÃO||||||0|0
-999999999|0|0||0|98|102|5|NOMEBANCO|X|5|0||2|12|SAFRA|SAFRA|1|0|NOMEDOBANCOPOREXTENSO||||||0|0
-999999999|0|0||0|103|107|5|AGÊNCIADEPOSITÁRIA|9|5|0||2|13|00000|00000|0|0|CÓDIGODAAGÊNCIADEPOSITARIA(USOBANCO)||||||0|0
-999999999|0|0||0|108|109|2|CÓDIGODATERCEIRIZADA|9|2|0||2|14|99|99|1|0|CÓDIGODAEMPRESATERCEIRIZADA||||||0|0
-999999999|0|0||0|110|280|171|BRANCOS|X|171|0||2|999|||0|0|BRANCOS||||||0|0
-999999999|0|0||0|281|288|8|DT.GRAVAÇÃO|D|8|0|DDMMYYYY|1|90|||1|0|DATADAGERAÇÃODOARQUIVOREMESSA||||||0|0
-999999999|0|0||0|289|294|6|NUM.ARQUIVO|9|6|0||1|91|||1|0|NÚMEROSEQÜENCIALDEGERAÇÃODOARQUIVO||||||0|0
-999999999|0|0||0|295|300|6|NUM.REGISTRO|9|6|0||2|99|000001|000001|1|0|NÚMEROSEQÜENCIALDOREGISTRONOARQUIVO||||||0|0
-999999999|1|0||0|1|1|1|COD.REGISTRO|9|1|0||2|1|1|1|1|0|IDENTIFICAÇÃODOREGISTROTRANSAÇÃO||||||0|0
-999999999|1|0||0|2|3|2|CÓD.OCORRÊNCIA|9|2|0||1|101|||1|0|CÓDIGODEOCORRÊNCIA(REMESSA/RETORNO)||||||0|0
-999999999|1|0||0|4|17|14|COD.EMPRESA|9|14|0||1|6|||1|1|IDENTIFICAÇÃODAEMPRESANOBANCO|CódigodoCedente:|5dígitosdaagência|9dígitosdacontacorrente|||1|0
-999999999|1|0||0|18|20|3|COD.FILIAL|9|3|0||1|7|||0|0|CODIGODAFILIAL||||||0|0
-999999999|1|0||0|21|45|25|USOEMPRESA|X|25|0||1|102|||1|0|USOEXCLUSIVODAEMPRESA||||||0|0
-999999999|1|0||0|46|48|3|BRANCOS|9|3|0||3|999|||0|0|BRANCOS||||||0|0
-999999999|1|0||0|49|56|8|DATADOEVENTO|9|8|0|DDMMYYYY|1|104|||1|0|DATADACAPTURA/EVENTO||||||0|0
-999999999|1|0||0|57|57|1|BRANCO|X|1|0||3|999|||0|0|BRANCO||||||0|0
-999999999|1|0||0|58|87|30|IDENTIFICAÇÃODOCHEQUE|9|30|0||1|105|||1|0|IDENTIFICAÇÃODOCHEQUENOBANCO-CMC7||(capturar/digitarasinformaçõespelabandamagnética-CMC7)||||0|0
-999999999|1|0||0|88|89|2|TIPOINSCRIÇÃO|9|2|0||1|106|||0|0|TIPODEINSCRIÇÃODOEMITENTEDOCHEQUE||(OPCIONAL)||||0|0
-999999999|1|0||0|90|103|14|NUM.INSCRIÇÃODOEMITENTE|9|14|0||1|107|||0|0|NÚMERODEINSCRIÇÃODOEMITENTE||(OPCIONAL)||||0|0
-999999999|1|0||0|104|133|30|NOMEDOEMITENTE|X|30|0||1|108|||0|0|NOMEDOEMITENTE||(OPCIONAL)||||0|0
-999999999|1|0||0|134|143|10|VALORDOCHEQUE(REMESSA)|9|8|2||1|109|||1|0|VALORDOCHEQUE|| (informadonoarquivoremessapelocliente)||||0|0
-999999999|1|0||0|144|151|8|DATABOA(REMESSA)|D|8|0|DDMMYYYY|1|110|||1|0|DATABOAPARACOMPENSAÇÃO|| (Informadonoarquivoremessapelocliente)||||0|0
-999999999|1|0||0|152|156|5|NÚMEROBORDERO(RETORNO)|9|5|0||3|111|||0|0|NUMEROBORDERO||(GERADOPELOBANCONOARQUIVORETORNO)||||0|0
-999999999|1|0||0|157|166|10|SEUNÚMERO|X|10|0||1|103|||1|0|NÚMEROATRIBUÍDOPELOCLIENTE||(CAMPOOPCIONAL)||||0|0
-999999999|1|0||0|167|181|15|BRANCOS|X|15|0||3|999|||0|0|BRANCOS||BRANCOS||||0|0
-999999999|1|0||0|182|183|2|MOTIVODEVOLUÇÃO|9|2|0||3|112|||0|0|MOTIVODEDEVOLUÇÃO(ALINEA)||(COD.GERADONOARQUIVORETORNO)||||0|0
-999999999|1|0||0|184|185|2|CÓD.REJEIÇÃO|9|2|0||3|113|||0|0|CODIGOMOTIVODEREJEIÇÃO||(COD.GERADOPELOBANCO-ARQUIVORETORNO)||||0|0
-999999999|1|0||0|186|194|9|NOSSONÚMERO|9|9|0||3|114|||0|0|NÚMEROSEQUENCIALDOMOVIMENTODEENTRADA||(GERADOPELOBANCO-ARQUIVORETORNO)||||0|0
-999999999|1|0||0|195|204|10|VALORDOCHEQUE(RETORNO)|9|8|2||3|115|||0|0|VALORDOCHEQUEREGISTRADONOBANCO|| (CONFIRMADOATRAVÉSDOFISICO)||||0|0
-999999999|1|0||0|205|212|8|DATABOA(RETORNO)|D|8|0|DDMMYYYY|3|116|||0|0|DATABOAREGISTRADANOBANCOPARACOMPENSAÇÃO||||||0|0
-999999999|1|0||0|213|226|14|CÓD.CEDENTEP/TRANSFERENCIA|9|14|0||1|117|||0|0|CÓDIGOCEDENTEPARATRANSFERENCIA||||||0|0
-999999999|1|0||0|227|234|8|DATAOPERAÇÃO|D|8|0|DDMMYYYY|1|118|||0|0|DATADAOPERAÇÃO/CESSÃO||||||0|0
-999999999|1|0||0|235|249|15|NÚMERODOCONTRATO|X|15|0||1|119|||0|0|NÚMERODOCONTRATO||(OBRIGATORIOP/OCORRÊNCIA03)||||0|0
-999999999|1|0||0|250|251|2|NUMEROPARCELA|9|2|0||1|120|||0|0|NÚMERODEPARCELADOCONTRATO||(OBRIGATORIOP/OCORRÊNCIA03)||||0|0
-999999999|1|0||0|252|259|8|DATAEMISSÃO|D|8|0|DDMMYYYY|1|121|||0|0|DATAEMISSÃODOCONTRATO(DT.CONTABIL)||(OBRIGATORIOP/OCORRÊNCIA03)||||0|0
-999999999|1|0||0|260|262|3|BANCO(RETORNO)|9|3|0||3|122|||0|0|BANCO||||||0|0
-999999999|1|0||0|263|266|4|AGÊNCIA(RETORNO)|9|4|0||3|123|||0|0|AGÊNCIA||||||0|0
-999999999|1|0||0|267|276|10|CONTA(RETORNO)|9|10|0||3|124|||0|0|CONTA||||||0|0
-999999999|1|0||0|277|282|6|CHEQUE(RETORNO)|9|6|0||3|125|||0|0|CHEQUE||||||0|0
-999999999|1|0||0|283|285|3|COMP(RETORNO)|9|3|0||3|126|||0|0|COMP||||||0|0
-999999999|1|0||0|286|294|9|BRANCOS|X|9|0||3|999|||0|0|BRANCOS||||||0|0
GridResult|||||||||||||||||||||||||||
Codigo|Registro|SubReg|Segmento|SubSeg|PosIni|PosFim|PosTam|Campo|Restricao|TamInt|TamFlu|FmtDta|Preenchmto|CodSis|DefaultRem|DefaultRet|Obrigatori|CliPreench|Descri01|Descri02|Descri03|Descri04|Descri05|Opcoes01|FulSize|InvertAli
-999999999|1|0||0|295|300|6|NUM.SEQUENCIALDOREGISTRO|9|6|0||1|99|||1|0|NÚMEROSEQUENCIALDOREGISTRO||||||0|0
-999999999|9|0||0|1|1|1|COD.REGISTRO|9|1|0||2|1|9|9|1|0|IDENTIFICAÇÃOREGISTROTRAILLER||||||0|0
-999999999|9|0||0|2|7|6|BRANCOS|X|6|0||2|999|||0|0|BRANCOS||||||0|0
-999999999|9|0||0|8|15|8|QUANTIDADE|9|8|0||2|901|||0|0|POSIÇÃODACARTEIRA||||||0|0
-999999999|9|0||0|16|25|10|VALORTOTAL|9|8|2||2|902|||0|0|VALORTOTALDOSCHEQUESNACARTEIRA||||||0|0
-999999999|9|0||0|26|33|8|QUANTIDADE|9|8|0||2|903|||0|0|QUANTIDADEDECHEQUES-ENTRADA||||||0|0
-999999999|9|0||0|34|43|10|VALORTOTAL|9|8|2||2|904|||0|0|VALORTOTALDASENTRADAS||||||0|0
-999999999|9|0||0|44|51|8|QUANTIDADE|9|8|0||2|905|||0|0|DEPÓSITOSQDADEDECHEQUES||||||0|0
-999999999|9|0||0|52|61|10|VALORTOTAL|9|8|2||2|906|||0|0|VALORTOTALDODEPOSITO||||||0|0
-999999999|9|0||0|62|69|8|QUANTIDADE|9|8|0||2|907|||0|0|BAIXASQDADEDECHEQUES||||||0|0
-999999999|9|0||0|70|79|10|VALORTOTAL|9|8|2||2|908|||0|0|VALORTOTALDASBAIXAS||||||0|0
-999999999|9|0||0|80|87|8|QUANTIDADE|9|8|0||2|909|||0|0|DEVOLUÇÃOQDADEDECHEQUES||||||0|0
-999999999|9|0||0|88|97|10|VALORTOTAL|9|8|2||2|910|||0|0|VALORTOTALDASDEVOLUÇÕES||||||0|0
-999999999|9|0||0|98|105|8|QUANTIDADE|9|8|0||2|911|||0|0|REAPRESENTAÇÕESQDADEDECHEQUES||||||0|0
-999999999|9|0||0|106|115|10|VALORTOTAL|9|8|2||2|912|||0|0|VALORTOTALDASREAPRESENTAÇÕES||||||0|0
-999999999|9|0||0|116|294|181|BRANCOS|X|181|0||2|999|||0|0|BRANCOS||||||0|0
-999999999|9|0||0|295|300|6|NÚMEROSEQUENCIALDOREGISTRO|9|6|0||2|99|||1|0|NÚMEROSEQUENCIALDOREGISTRO||||||0|0
