Alterados de lugar
===============

C:\_Compilers\Delphi_XE2\NFe\Fatura\
 todos NFaEditCSOSN....


Remover do projeto:
===============
FatPedNFs
NFaEdit
  NFeValidaXML_0200 in '..\..\..\..\NFe\v_02_00\Geral\NFeValidaXML_0200.pas' {FmNFeValidaXML_0200},
  NFeValidaXML_0110 in '..\..\..\..\NFe\v_01_10\Geral\NFeValidaXML_0110.pas' {FmNFeValidaXML_0110},


Adicionar no projeto
====================

  NFaEditCSOSN in '..\..\..\..\NFe\Fatura\NFaEditCSOSN.pas' {FmNFaEditCSOSN},
  NFaEditCSOSNAlq in '..\..\..\..\NFe\Fatura\NFaEditCSOSNAlq.pas' {FmNFaEditCSOSNAlq},
  NFaEditCSOSN202 in '..\..\..\..\NFe\Fatura\NFaEditCSOSN202.pas' {FmNFaEditCSOSN202},
  NFaEditCSOSN500 in '..\..\..\..\NFe\Fatura\NFaEditCSOSN500.pas' {FmNFaEditCSOSN500},
  NFeSteps_0200 in '..\..\..\..\NFe\v_02_00\Geral\NFeSteps_0200.pas' {FmNFeSteps_0200},
  NFeGeraXML_0200 in '..\..\..\..\NFe\v_02_00\Geral\NFeGeraXML_0200.pas' {FmNFeGeraXML_0200},
  NFaEdit_0200 in '..\..\..\..\NFe\v_02_00\Geral\NFaEdit_0200.pas' {FmNFaEdit_0200},
  FatPedNFs_0200 in '..\..\..\..\NFe\Geral\FatPedNFs_0200.pas' {FmFatPedNFs_0200},
  NFe_PF in '..\..\..\..\NFe\Geral\NFe_PF.pas',
  consStatServ_v310 in '..\..\..\..\NFe\v_03_10\XSD\consStatServ_v310.pas',
  inutNFe_v310 in '..\..\..\..\NFe\v_03_10\XSD\inutNFe_v310.pas',
  nfe_v310 in '..\..\..\..\NFe\v_03_10\XSD\nfe_v310.pas',
  HorVerao in '..\..\..\..\Geral\HorVerao.pas' {FmHorVerao},
  IBPTaxCad in '..\..\..\..\Outros\Tabelas\IBPTaxCad.pas' {FmIBPTaxCad},
  IBPTaxLoad in '..\..\..\..\Outros\Tabelas\IBPTaxLoad.pas' {FmIBPTaxLoad},
  NFeNewVer in '..\..\..\..\NFe\Geral\NFeNewVer.pas' {FmNFeNewVer},
  NFeLayout_0200 in '..\..\..\..\NFe\Outros\NFeLayout_0200.pas' {FmNFeLayout_0200},
  NFeLayout_Edit in '..\..\..\..\NFe\Outros\NFeLayout_Edit.pas' {FmNFeLayout_Edit},
  NFeSteps_0310 in '..\..\..\..\NFe\v_03_10\Geral\NFeSteps_0310.pas' {FmNFeSteps_0310},
  NFeGeraXML_0310 in '..\..\..\..\NFe\v_03_10\Geral\NFeGeraXML_0310.pas' {FmNFeGeraXML_0310},
  NFaEdit_0310 in '..\..\..\..\NFe\v_03_10\Geral\NFaEdit_0310.pas' {FmNFaEdit_0310},
  FatPedNFs_0310 in '..\..\..\..\NFe\v_03_10\Emissao\FatPedNFs_0310.pas' {FmFatPedNFs_0310},
  NFeItsI03_0310 in '..\..\..\..\NFe\v_03_10\Geral\NFeItsI03_0310.pas' {FmNFeItsI03_0310},
  NFeCabGA in '..\..\..\..\NFe\Geral\NFeCabGA.pas' {FmNFeCabGA},
  NFeItsIDI_0310 in '..\..\..\..\NFe\v_03_10\Geral\NFeItsIDI_0310.pas' {FmNFeItsIDI_0310},
  NFeItsIDIa_0310 in '..\..\..\..\NFe\v_03_10\Geral\NFeItsIDIa_0310.pas' {FmNFeItsIDIa_0310},
  NFeItsM_0310 in '..\..\..\..\NFe\v_03_10\Geral\NFeItsM_0310.pas' {FmNFeItsM_0310},
  NFeLEnU_0310 in '..\..\..\..\NFe\v_03_10\Servicos\NFeLEnU_0310.pas' {FmNFeLEnU_0310},
  NFeLEnC_0310 in '..\..\..\..\NFe\v_03_10\Servicos\NFeLEnC_0310.pas' {FmNFeLEnC_0310},
  NFeConsulta_0310 in '..\..\..\..\NFe\v_03_10\Servicos\NFeConsulta_0310.pas' {FmNFeConsulta_0310},
  NFeLeXML_0310 in '..\..\..\..\NFe\v_03_10\Geral\NFeLeXML_0310.pas',
  NFeLEnI_0310 in '..\..\..\..\NFe\v_03_10\Servicos\NFeLEnI_0310.pas' {FmNFeLEnI_0310},
  consSitNFe_v310 in '..\..\..\..\NFe\v_03_10\XSD\consSitNFe_v310.pas',
  NFeWebServices_0310 in '..\..\..\..\NFe\v_03_10\Geral\NFeWebServices_0310.pas' {FmNFeWebServices_0310},
  distDFeInt_v100 in '..\..\..\..\NFe\DFe\v_01_00\distDFeInt_v100.pas',
  NFeLoad_Inn in '..\..\..\..\XML\Load NFe\NFeLoad_Inn.pas' {FmNFeLoad_Inn},
  NFeLoad_Web in '..\..\..\..\HTML\LoadNFe\NFeLoad_Web.pas' {FmNFeLoad_Web},
  NFeValidaXML_0001 in '..\..\..\..\NFe\Auxiliares\NFeValidaXML_0001.pas' {FmNFeValidaXML_0001},
  NFeDistDFeInt_0100 in '..\..\..\..\NFe\DFe\v_01_00\NFeDistDFeInt_0100.pas' {FmNFeDistDFeInt_0100};


Mylistas
  CO_VERSAO
Principal
  n... 
Bugstrol
  n...
Extratos2
  n...
ModuleFin
  DefineValorSit
UCreate
  ExtratoCC2
Extratos
  Compatibilidade com ModuleFin
